<?xml version="1.0" encoding="UTF-8"?>
<svg width="240px" height="240px" viewBox="0 0 240 240" version="1.1" xmlns="http://www.w3.org/2000/svg" xmlns:xlink="http://www.w3.org/1999/xlink">
    <title>com.android.mms_b_s6_1x1_1_sc</title>
    <g id="com.android.mms" stroke="none" stroke-width="1" fill="none" fill-rule="evenodd">
        <path d="M136.518965,138.998925 C136.663692,138.998925 136.806222,138.998566 136.946609,138.997849 L136.946609,138.997849 L137.763626,138.989266 L138.531713,138.972146 L139.253394,138.946541 L139.931188,138.9125 L140.567619,138.870074 L141.165207,138.819313 L141.726475,138.760266 L142.253945,138.692985 C142.50965,138.657293 142.753626,138.618533 142.987292,138.576731 L142.987292,138.576731 L143.441298,138.489081 C143.735364,138.427955 144.012781,138.361457 144.276913,138.289652 L144.276913,138.289652 L144.663565,138.177973 C144.789408,138.139426 144.91235,138.09956 145.032811,138.058385 L145.032811,138.058385 L145.387171,137.930937 L145.559557,137.864282 L145.896317,137.72514 C145.951658,137.701303 146.006642,137.677145 146.061321,137.652665 L146.061321,137.652665 L146.386155,137.501941 L146.70619,137.343557 L147.023948,137.177565 C149.24617,135.989108 150.990183,134.245095 152.178641,132.022873 L152.178641,132.022873 L152.344633,131.705114 L152.503016,131.385079 L152.579339,131.22342 L152.726215,130.895241 C152.750051,130.8399 152.773565,130.784201 152.796756,130.728092 L152.796756,130.728092 L152.932013,130.386096 L153.05946,130.031736 C153.100635,129.911275 153.140501,129.788333 153.179048,129.66249 L153.179048,129.66249 L153.290727,129.275837 C153.362532,129.011706 153.429031,128.734288 153.490156,128.440222 L153.490156,128.440222 L153.577806,127.986217 C153.619608,127.752551 153.658369,127.508575 153.69406,127.252869 L153.69406,127.252869 L153.761342,126.7254 L153.820388,126.164132 L153.87115,125.566543 L153.913576,124.930113 L153.947616,124.252318 L153.973221,123.530638 L153.990341,122.762551 L153.998925,121.945534 L153.998,106.515 L161.268168,106.515711 C161.87709,106.515711 162.479806,106.393364 163.040531,106.155933 C165.352216,105.177083 166.432693,102.509578 165.453843,100.197893 L165.453843,100.197893 L161.135,90 L170.945534,90 L171.762551,90.0085838 L172.530638,90.0257033 L173.252318,90.0513084 L173.930113,90.0853491 L174.566543,90.1277752 L175.164132,90.1785365 L175.7254,90.2375831 L176.252869,90.3048647 C176.508575,90.340556 176.752551,90.3793166 176.986217,90.4211184 L176.986217,90.4211184 L177.440222,90.5087685 C177.734288,90.569894 178.011706,90.6363926 178.275837,90.7081976 L178.275837,90.7081976 L178.66249,90.8198764 C178.788333,90.8584237 178.911275,90.8982892 179.031736,90.9394646 L179.031736,90.9394646 L179.386096,91.0669121 C179.444055,91.0888055 179.5015,91.1110242 179.558482,91.1335673 L179.558482,91.1335673 L179.895241,91.2727097 C179.950583,91.296546 180.005567,91.3207045 180.060246,91.3451842 L180.060246,91.3451842 L180.385079,91.4959087 L180.705114,91.654292 L181.022873,91.820284 C183.245095,93.0087415 184.989108,94.7527545 186.177565,96.9749767 L186.177565,96.9749767 L186.343557,97.2927349 L186.501941,97.6127699 C186.527701,97.6664389 186.553142,97.7203079 186.578263,97.7744293 L186.578263,97.7744293 L186.72514,98.1026079 C186.748976,98.1579494 186.77249,98.2136485 186.795681,98.2697576 L186.795681,98.2697576 L186.930937,98.6117537 L187.058385,98.9661137 C187.09956,99.0865745 187.139426,99.2095163 187.177973,99.3353593 L187.177973,99.3353593 L187.289652,99.7220122 C187.361457,99.9861436 187.427955,100.263561 187.489081,100.557627 L187.489081,100.557627 L187.576731,101.011632 C187.618533,101.245298 187.657293,101.489275 187.692985,101.74498 L187.692985,101.74498 L187.760266,102.27245 L187.819313,102.833718 L187.870074,103.431306 L187.9125,104.067737 L187.946541,104.745531 L187.972146,105.467211 L187.989266,106.235299 C187.991409,106.367321 187.993197,106.501381 187.994628,106.637533 L187.994628,106.637533 L187.998925,107.47996 L187.998925,175.035199 L187.994223,175.203378 C187.906851,176.761952 186.612649,177.998925 185.028925,177.998925 C184.347742,177.998925 183.687261,177.765264 183.15819,177.337109 L183.15819,177.337109 L175.918411,171.477479 C171.882157,168.319055 166.525926,167.002815 160.998925,167.002815 L160.998925,167.002815 L160.549825,166.999207 L113.47996,166.998925 C113.335233,166.998925 113.192702,166.998566 113.052315,166.997849 L113.052315,166.997849 L112.235299,166.989266 L111.467211,166.972146 L110.745531,166.946541 L110.067737,166.9125 L109.431306,166.870074 L108.833718,166.819313 L108.27245,166.760266 L107.74498,166.692985 C107.489275,166.657293 107.245298,166.618533 107.011632,166.576731 L107.011632,166.576731 L106.557627,166.489081 C106.263561,166.427955 105.986144,166.361457 105.722012,166.289652 L105.722012,166.289652 L105.335359,166.177973 C105.209516,166.139426 105.086575,166.09956 104.966114,166.058385 L104.966114,166.058385 L104.611754,165.930937 L104.611754,165.930937 L104.439368,165.864282 L104.102608,165.72514 C104.047266,165.701303 103.992283,165.677145 103.937604,165.652665 L103.937604,165.652665 L103.61277,165.501941 L103.292735,165.343557 L102.974977,165.177565 C100.752754,163.989108 99.0087415,162.245095 97.820284,160.022873 L97.820284,160.022873 L97.654292,159.705114 L97.4959087,159.385079 L97.4959087,159.385079 L97.419586,159.22342 L97.2727097,158.895241 C97.2488734,158.8399 97.2253594,158.784201 97.2021686,158.728092 L97.2021686,158.728092 L97.0669121,158.386096 L96.9394646,158.031736 C96.8982892,157.911275 96.8584237,157.788333 96.8198764,157.66249 L96.8198764,157.66249 L96.7081976,157.275837 C96.6363926,157.011706 96.569894,156.734288 96.5087685,156.440222 L96.5087685,156.440222 L96.4211184,155.986217 C96.3793166,155.752551 96.340556,155.508575 96.3048647,155.252869 L96.3048647,155.252869 L96.2375831,154.7254 L96.1785365,154.164132 L96.1277752,153.566543 L96.0853491,152.930113 L96.0513084,152.252318 L96.0257033,151.530638 L96.0085838,150.762551 L96,149.945534 L95.999,138.999 Z" id="形状结合" fill="#4BDCE2"></path>
    </g>
</svg>