<?xml version="1.0" encoding="UTF-8"?>
<svg width="240px" height="240px" viewBox="0 0 240 240" version="1.1" xmlns="http://www.w3.org/2000/svg" xmlns:xlink="http://www.w3.org/1999/xlink">
    <title>com.vivo.gallery_b_s6_1x1_3_sc</title>
    <g id="com.vivo.gallery" stroke="none" stroke-width="1" fill="none" fill-rule="evenodd">
        <g id="编组" transform="translate(53.000000, 63.000000)">
            <g id="编组-40" fill="#00FF59">
                <path d="M71.2346736,18.213789 L108.712262,78.9729103 C112.191555,84.613582 110.439411,92.0067741 104.79874,95.4860669 C102.905045,96.6541404 100.723889,97.2727273 98.4989228,97.2727273 L21.5010772,97.2727273 C14.8736602,97.2727273 9.50107719,91.9001443 9.50107719,85.2727273 C9.50107719,83.0477607 10.119664,80.8666053 11.2877376,78.9729103 L48.7653264,18.213789 C52.5925485,12.0090501 60.7250598,10.0816919 66.9297987,13.9089141 C68.6805858,14.9888389 70.1547488,16.4630018 71.2346736,18.213789 Z" id="山" opacity="0.949999988"></path>
                <path d="M85.2700485,40.9697467 L108.712262,78.9729103 C110.380848,81.678041 110.846239,84.7862393 110.256557,87.6725037 L71.9810485,87.6727273 C66.6791149,87.6727273 62.3810485,83.3746609 62.3810485,78.0727273 C62.3810485,76.1708935 62.9459367,74.3119128 64.0040533,72.7316087 L85.2700485,40.9697467 Z" id="形状结合" opacity="0.900000036"></path>
            </g>
            <g id="编组-40" transform="translate(85.270758, 0.072727)">
                <path d="M31.7292424,18 C36.6998052,18 40.7292424,13.9705627 40.7292424,9 C40.7292424,4.02943725 36.6998052,0 31.7292424,0 C26.7586797,0 22.7292424,4.02943725 22.7292424,9 C22.7292424,13.9705627 26.7586797,18 31.7292424,18 Z" id="太阳" fill="#C9BA6A" opacity="0.600000024"></path>
                <path d="M16.7380008,35.3102719 C17.9107122,36.0954787 18.9181552,37.1029217 19.703362,38.2756332 L42.7251891,72.6588815 C45.6750074,77.0644543 44.4948853,83.0271769 40.0893124,85.9769952 C38.5090084,87.0351118 36.6500277,87.6 34.7481939,87.6 L24.9857991,87.5997765 C25.5754809,84.713512 25.1100901,81.6053137 23.4415048,78.900183 L23.4415048,78.900183 L0,40.8962637 L1.75512278,38.2756332 C5.07366839,33.3193638 11.7817314,31.9917263 16.7380008,35.3102719 Z" id="形状结合" fill="#00FF59" opacity="0.5"></path>
            </g>
        </g>
    </g>
</svg>