<?xml version="1.0" encoding="UTF-8"?>
<svg width="240px" height="240px" viewBox="0 0 240 240" version="1.1" xmlns="http://www.w3.org/2000/svg" xmlns:xlink="http://www.w3.org/1999/xlink">
    <title>com.vivo.translator_b_s6_1x1_sc</title>
    <g id="com.vivo.translator" stroke="none" stroke-width="1" fill="none" fill-rule="evenodd">
        <g id="翻译机备份-7" transform="translate(61.153846, 61.153846)" fill="#8EB4EC" fill-rule="nonzero">
            <g id="闹钟时钟">
                <path d="M14.8416469,73.2763725 C15.0419339,73.4927809 15.1867354,73.7545452 15.2636302,74.0392111 L16.4220712,78.3234915 C29.2512527,79.8544202 39.1979067,90.772641 39.1979067,104.014027 C39.1979067,105.55888 37.9455564,106.81123 36.400704,106.81123 C34.8558516,106.81123 33.6035013,105.55888 33.6035013,104.014027 C33.6035013,93.8063687 26.0618561,85.3601557 16.2465438,83.9433664 L5.28493891,83.9440972 C4.27815516,83.9440972 3.46199567,83.1279377 3.46199567,82.121154 C3.46199567,81.6132046 3.67392832,81.1282897 4.04671983,80.7832693 L12.265543,73.1767069 C13.0044364,72.4928573 14.1577973,72.5374792 14.8416469,73.2763725 Z" id="形状结合" transform="translate(21.329951, 89.751435) scale(-1, -1) rotate(11.000000) translate(-21.329951, -89.751435) "></path>
            </g>
            <path d="M41.6896938,65.7692308 L41.6885226,48.5433398 L53.798794,48.5433398 L53.7994772,50.2260111 L63.4615385,50.2260111 L63.4615385,19.1395718 L41.6885226,19.139768 L41.6896938,9.23076923 L32.0276326,9.23076923 L32.0269494,19.139768 L10.3846154,19.1395718 L10.3846154,50.3555379 L20.0466766,50.3555379 L20.046091,48.5433398 L32.0269494,48.5433398 L32.0276326,65.7692308 L41.6896938,65.7692308 Z M32.0269494,39.3459536 L20.046091,39.3459536 L20.0466766,28.4655036 L32.0269494,28.4659942 L32.0269494,39.3459536 Z M53.798794,39.3459536 L41.6885226,39.3459536 L41.6885226,28.4659942 L53.7994772,28.4655036 L53.798794,39.3459536 Z" id="中"></path>
        </g>
    </g>
</svg>