<?xml version="1.0" encoding="UTF-8"?>
<svg width="240px" height="240px" viewBox="0 0 240 240" version="1.1" xmlns="http://www.w3.org/2000/svg" xmlns:xlink="http://www.w3.org/1999/xlink">
    <title>com.vivo.game_b_s6_1x1_mc</title>
    <defs>
        <filter color-interpolation-filters="auto" id="filter-1">
            <feColorMatrix in="SourceGraphic" type="matrix" values="0 0 0 0 1.000000 0 0 0 0 1.000000 0 0 0 0 1.000000 0 0 0 1.000000 0"></feColorMatrix>
        </filter>
        <filter color-interpolation-filters="auto" id="filter-2">
            <feColorMatrix in="SourceGraphic" type="matrix" values="0 0 0 0 0.847000 0 0 0 0 0.847000 0 0 0 0 0.847000 0 0 0 1.000000 0"></feColorMatrix>
        </filter>
        <linearGradient x1="50%" y1="0%" x2="50%" y2="100%" id="linearGradient-3">
            <stop stop-color="#FFE5B1" offset="0%"></stop>
            <stop stop-color="#FFDC7B" offset="100%"></stop>
        </linearGradient>
        <linearGradient x1="50%" y1="-149.88223%" x2="50%" y2="100%" id="linearGradient-4">
            <stop stop-color="#FFAD03" offset="0%"></stop>
            <stop stop-color="#FFE9AC" offset="100%"></stop>
        </linearGradient>
        <linearGradient x1="50%" y1="-149.88223%" x2="50%" y2="100%" id="linearGradient-5">
            <stop stop-color="#FFAD03" offset="0%"></stop>
            <stop stop-color="#FFE9AC" offset="100%"></stop>
        </linearGradient>
    </defs>
    <g id="com.vivo.game" stroke="none" stroke-width="1" fill="none" fill-rule="evenodd">
        <g filter="url(#filter-1)" id="编组">
            <g transform="translate(64.000000, 66.000000)">
                <g filter="url(#filter-2)" id="游戏中心备份-2">
                    <g transform="translate(-0.000000, 0.000000)">
                        <g id="编组-6" transform="translate(-0.000000, 0.000000)">
                            <path d="M58.3181858,1.97368239 L103.876983,95.114083 L103.876983,95.114083 L7.30333233,95.114083 L52.0073355,1.99682892 C52.8454598,0.251038249 54.9401367,-0.484770741 56.6859274,0.35335354 C57.3967114,0.694588811 57.9717459,1.26542057 58.3181858,1.97368239 Z" id="合并形状" fill="url(#linearGradient-3)" opacity="0.7"></path>
                            <path d="M13.3786467,29.5758892 L112,95.5070056 L112,95.5070056 L15.143985,95.5070056 L7.94636921,32.891342 C7.7252204,30.9674577 9.1055602,29.2285649 11.0294444,29.0074161 C11.8551371,28.9125034 12.687699,29.1139714 13.3786467,29.5758892 Z" id="三角形" fill="url(#linearGradient-4)" opacity="0.5" transform="translate(59.540667, 60.436483) scale(-1, 1) translate(-59.540667, -60.436483) "></path>
                            <path d="M5.44132388,29.5121672 L102.899788,94.0517637 L102.899788,94.0517637 L103.937348,95.5070056 L7.08133313,95.5070056 L0.0208943939,32.8281776 C-0.19587711,30.9037953 1.188415,29.1680471 3.11279737,28.9512756 C3.93074734,28.8591379 4.75504103,29.0576924 5.44132388,29.5121672 Z" id="合并形状" fill="url(#linearGradient-5)" opacity="0.5"></path>
                        </g>
                    </g>
                </g>
                <g id="编组-6" transform="translate(7.081333, 87.588580)" fill="#FFFFFF">
                    <path d="M48.4280075,16.4114198 C75.1740575,16.4114198 96.856015,12.7375983 96.856015,8.20570988 C96.856015,3.67382145 75.1740575,0 48.4280075,0 C21.6819575,0 0,3.67382145 0,8.20570988 C0,12.7375983 21.6819575,16.4114198 48.4280075,16.4114198 Z" id="椭圆形" transform="translate(48.428007, 8.205710) scale(-1, 1) translate(-48.428007, -8.205710) "></path>
                </g>
            </g>
        </g>
    </g>
</svg>