<?xml version="1.0" encoding="UTF-8"?>
<svg width="240px" height="240px" viewBox="0 0 240 240" version="1.1" xmlns="http://www.w3.org/2000/svg" xmlns:xlink="http://www.w3.org/1999/xlink">
    <title>com.vivo.minigamecenter_b_s6_1x1_mc</title>
    <defs>
        <path d="M55.9393135,-5.88735177e-15 L124.060687,2.26001522e-15 C143.512005,-1.31313392e-15 150.565522,2.02528606 157.676634,5.8283499 C164.787745,9.63141374 170.368586,15.2122554 174.17165,22.3233665 C177.974714,29.4344776 180,36.4879955 180,55.9393135 L180,124.060687 C180,143.512005 177.974714,150.565522 174.17165,157.676634 C170.368586,164.787745 164.787745,170.368586 157.676634,174.17165 C150.565522,177.974714 143.512005,180 124.060687,180 L55.9393135,180 C36.4879955,180 29.4344776,177.974714 22.3233665,174.17165 C15.2122554,170.368586 9.63141374,164.787745 5.8283499,157.676634 C2.02528606,150.565522 2.98300962e-15,143.512005 -5.13401337e-15,124.060687 L1.50667681e-15,55.9393135 C-8.75422616e-16,36.4879955 2.02528606,29.4344776 5.8283499,22.3233665 C9.63141374,15.2122554 15.2122554,9.63141374 22.3233665,5.8283499 C29.4344776,2.02528606 36.4879955,3.42072092e-15 55.9393135,-5.88735177e-15 Z" id="path-1"></path>
        <filter color-interpolation-filters="auto" id="filter-3">
            <feColorMatrix in="SourceGraphic" type="matrix" values="0 0 0 0 0.000000 0 0 0 0 0.941176 0 0 0 0 0.321569 0 0 0 1.000000 0"></feColorMatrix>
        </filter>
        <path d="M55.9393135,-5.88735177e-15 L124.060687,2.26001522e-15 C143.512005,-1.31313392e-15 150.565522,2.02528606 157.676634,5.8283499 C164.787745,9.63141374 170.368586,15.2122554 174.17165,22.3233665 C177.974714,29.4344776 180,36.4879955 180,55.9393135 L180,124.060687 C180,143.512005 177.974714,150.565522 174.17165,157.676634 C170.368586,164.787745 164.787745,170.368586 157.676634,174.17165 C150.565522,177.974714 143.512005,180 124.060687,180 L55.9393135,180 C36.4879955,180 29.4344776,177.974714 22.3233665,174.17165 C15.2122554,170.368586 9.63141374,164.787745 5.8283499,157.676634 C2.02528606,150.565522 2.98300962e-15,143.512005 -5.13401337e-15,124.060687 L1.50667681e-15,55.9393135 C-8.75422616e-16,36.4879955 2.02528606,29.4344776 5.8283499,22.3233665 C9.63141374,15.2122554 15.2122554,9.63141374 22.3233665,5.8283499 C29.4344776,2.02528606 36.4879955,3.42072092e-15 55.9393135,-5.88735177e-15 Z" id="path-4"></path>
        <path d="M38.636341,0.69163993 C38.7440694,0.784381268 38.8447238,0.885035702 38.9374651,0.992764083 L51.0236813,15.0321182 C51.997738,16.163583 53.5959415,16.527263 54.9636787,15.9286865 L69.5447195,9.54743988 C70.9897748,8.91502585 72.6738965,9.57380182 73.3063106,11.0188572 C73.4643313,11.3799319 73.5459083,11.7698051 73.5459083,12.1639441 L73.545,47.243 L67.7591047,53.8999868 C64.1856386,58.0107893 64.5483438,64.2016011 68.5253921,67.8700658 L68.7500556,68.0712451 L73.545,72.239 L73.5459083,81.1938327 L18.3606553,81.1938327 C8.22034538,81.1938327 -3.62868106e-12,72.9734873 -3.63797881e-12,62.8331774 L-3.63797881e-12,12.1639441 C-3.63772789e-12,10.5865625 1.27872039,9.30784215 2.85610194,9.30784215 C3.25024093,9.30784215 3.64011407,9.38941912 4.00118883,9.54743988 L18.5822296,15.9286865 C19.9499668,16.527263 21.5481703,16.163583 22.522227,15.0321182 L34.6084432,0.992764083 C35.6375633,-0.202662323 37.4409146,-0.337480199 38.636341,0.69163993 Z M60.1239688,32.4537481 L59.9890489,32.5423051 L50.1347488,39.5672357 L23.2360138,40.0106692 L12.6365864,33.1613621 C12.3028514,32.9457038 11.9139502,32.8309844 11.5165996,32.8309844 C10.4264685,32.8309844 9.53376853,33.6762874 9.45820319,34.7471898 L9.45302191,34.8945621 L9.45302191,57.7463274 C9.45302191,61.2733917 12.2501149,64.14716 15.7471081,64.2704396 L15.9812549,64.2745604 L56.7222589,64.2745604 C60.2493232,64.2745604 63.1230915,61.4774675 63.246371,57.9804742 L63.2504919,57.7463274 L63.2504919,34.222624 C63.2504919,33.7931835 63.1165147,33.3744413 62.8672331,33.0247588 C62.2371734,32.1409354 61.0383661,31.9029286 60.1239688,32.4537481 Z" id="path-6"></path>
        <path d="M36.7965152,0.658704695 C36.8991137,0.747029779 36.994975,0.842891145 37.0833001,0.945489603 L48.5939822,14.3163031 C49.5216552,15.3938885 51.0437538,15.7402505 52.3463607,15.1701776 L66.2330662,9.09279988 C67.6093094,8.49050081 69.2132348,9.11790649 69.8155339,10.4941497 C69.9660298,10.8380304 70.0437222,11.2093382 70.0437222,11.5847087 L70.0437222,60.1649424 C70.0437222,69.6435389 62.3598015,77.3274597 52.8812049,77.3274597 L-1.96678229e-11,77.3274597 L0.000617595752,77.0433905 C3.42871778,74.1453389 4.59458511,69.1907201 2.53681292,64.9716619 L2.53681292,64.9716619 L-1.62003744e-11,59.771 L-1.96678229e-11,11.5847087 C-1.96711155e-11,10.0824405 1.21782895,8.86461157 2.72009708,8.86461157 C3.09546755,8.86461157 3.4667753,8.94230392 3.81065603,9.09279988 L17.6973615,15.1701776 C18.9999684,15.7402505 20.522067,15.3938885 21.44974,14.3163031 L32.9604221,0.945489603 C33.9405365,-0.193011736 35.6580139,-0.321409713 36.7965152,0.658704695 Z M57.2674592,30.9044112 L57.1324276,30.9926715 L47.7473798,37.6830816 L22.129537,38.1053992 L12.0348442,31.5822496 C11.7170013,31.3768608 11.3466193,31.2676042 10.9681901,31.2676042 C9.93211509,31.2676042 9.08329354,32.0693314 9.0082686,33.0862427 L9.00287801,33.2329163 L9.00287801,54.9965023 C9.00287801,58.3539523 11.6641457,61.08983 14.9923123,61.2097666 L15.2202428,61.213867 L54.0211989,61.213867 C57.378649,61.213867 60.1145267,58.5525994 60.2344632,55.2244327 L60.2385637,54.9965023 L60.2385637,32.5929753 C60.2385637,32.1839843 60.1109664,31.7851822 59.8735553,31.4521512 C59.2749986,30.612519 58.1374824,30.3848787 57.2674592,30.9044112 Z" id="path-8"></path>
        <path d="M59.4501521,1.06423378 C59.615915,1.20693587 59.770793,1.36181392 59.9134951,1.52757674 L78.5106855,23.1300815 C80.009477,24.8710784 82.4686499,25.4306768 84.5732018,24.5096407 L107.009206,14.6907481 C109.232728,13.7176459 111.824104,14.7313115 112.797206,16.9548337 C113.040354,17.5104233 113.165878,18.1103253 113.165878,18.7167912 L113.165878,97.205264 C113.165878,112.519323 100.75138,124.933821 85.4373208,124.933821 L28.2517372,124.933821 C12.6487336,124.933821 -4.55622083e-12,112.285087 -4.55457894e-12,96.6820837 L-4.55457894e-12,18.7167912 C-4.55360862e-12,16.2896573 1.96758078,14.3220765 4.39471467,14.3220765 C5.00118056,14.3220765 5.60108255,14.4475999 6.15667216,14.6907481 L28.5926759,24.5096407 C30.6972278,25.4306768 33.1564007,24.8710784 34.6551922,23.1300815 L53.2523826,1.52757674 C54.8359008,-0.31183869 57.6107367,-0.519284401 59.4501521,1.06423378 Z M96.7344857,50.8155504 C95.716532,49.3876046 93.7337387,49.0552402 92.3057928,50.0731938 L92.3057928,50.0731938 L77.1428756,60.8825298 L35.7535036,61.5648456 L19.444051,51.0257434 C18.9305293,50.6939078 18.332123,50.5173877 17.7207153,50.5173877 C15.9670736,50.5173877 14.5454662,51.9389952 14.5454662,53.6926368 L14.5454662,53.6926368 L14.5454662,88.8548932 C14.5454662,94.4026278 19.0427937,98.8999553 24.5905283,98.8999553 L24.5905283,98.8999553 L87.2791479,98.8999553 C92.8268825,98.8999553 97.32421,94.4026278 97.32421,88.8548932 L97.32421,88.8548932 L97.32421,52.6587185 C97.32421,51.9979338 97.1180579,51.3536107 96.7344857,50.8155504 Z" id="path-10"></path>
    </defs>
    <g id="com.vivo.minigamecenter" stroke="none" stroke-width="1" fill="none" fill-rule="evenodd">
        <g id="编组-2" transform="translate(30.000000, 30.000000)">
            <g id="秒玩小游戏-新备份">
                <mask id="mask-2" fill="white">
                    <use xlink:href="#path-1"></use>
                </mask>
                <g id="蒙版"></g>
            </g>
            <g filter="url(#filter-3)" id="秒玩小游戏-新备份-2">
                <g>
                    <mask id="mask-5" fill="white">
                        <use xlink:href="#path-4"></use>
                    </mask>
                    <g id="蒙版"></g>
                    <g id="编组-6" mask="url(#mask-5)">
                        <g transform="translate(-61.210053, 24.412662)" id="编组-21">
                            <g transform="translate(-0.000000, 0.000000)">
                                <path d="M188.079382,53.9878277 C191.593922,53.9878277 194.443019,51.1387306 194.443019,47.6241913 C194.443019,44.109652 191.593922,41.260555 188.079382,41.260555 C184.564843,41.260555 181.715746,44.109652 181.715746,47.6241913 C181.715746,51.1387306 184.564843,53.9878277 188.079382,53.9878277 Z" id="椭圆形备份-35" fill="#EFBCFF" fill-rule="nonzero"></path>
                                <path d="M78.6240201,75.8789001 C82.1385594,75.8789001 84.9876565,73.0298031 84.9876565,69.5152638 C84.9876565,66.0007244 82.1385594,63.1516274 78.6240201,63.1516274 C75.1094808,63.1516274 72.2603837,66.0007244 72.2603837,69.5152638 C72.2603837,73.0298031 75.1094808,75.8789001 78.6240201,75.8789001 Z" id="椭圆形备份-36" fill="#8FE7FD" fill-rule="nonzero" opacity="0.5"></path>
                                <path d="M231.861527,87.4005172 C235.376066,87.4005172 238.225163,84.5514201 238.225163,81.0368808 C238.225163,77.5223415 235.376066,74.6732445 231.861527,74.6732445 C228.346988,74.6732445 225.497891,77.5223415 225.497891,81.0368808 C225.497891,84.5514201 228.346988,87.4005172 231.861527,87.4005172 Z" id="椭圆形备份-36" fill="#FD928F" fill-rule="nonzero" opacity="0.5"></path>
                                <g id="粉色icon" transform="translate(71.381674, 132.447016) rotate(-63.000000) translate(-71.381674, -132.447016) translate(19.236903, 78.902578)">
                                    <g id="编组备份" transform="translate(52.144771, 53.544438) rotate(30.000000) translate(-52.144771, -53.544438) translate(15.371816, 12.947522)">
                                        <g id="Mask-Copy备份-5" transform="translate(-0.000000, -0.000000)">
                                            <mask id="mask-7" fill="white">
                                                <use xlink:href="#path-6"></use>
                                            </mask>
                                            <use id="形状结合" fill="#F86EC6" opacity="0.5" xlink:href="#path-6"></use>
                                        </g>
                                    </g>
                                    <circle id="椭圆形" fill="#000000" cx="34.6381621" cy="56.9595188" r="4.81501457"></circle>
                                    <circle id="椭圆形备份-7" fill="#000000" opacity="0.5" cx="55.95333" cy="69.3191746" r="4.81501457"></circle>
                                </g>
                                <g id="紫色icon" opacity="0.900000036" transform="translate(228.229899, 134.603361) rotate(4.000000) translate(-228.229899, -134.603361) translate(178.568213, 83.608658)">
                                    <g id="编组备份" transform="translate(49.661686, 50.994703) rotate(30.000000) translate(-49.661686, -50.994703) translate(14.639825, 12.330973)">
                                        <g id="Mask-Copy备份-5" transform="translate(-0.000000, 0.000000)">
                                            <mask id="mask-9" fill="white">
                                                <use xlink:href="#path-8"></use>
                                            </mask>
                                            <use id="形状结合" fill="#4710FF" opacity="0.5" xlink:href="#path-8"></use>
                                        </g>
                                    </g>
                                    <circle id="椭圆形备份" fill="#000000" cx="56.6180354" cy="68.5277965" r="4.58572816"></circle>
                                    <circle id="椭圆形备份-6" fill="#000000" opacity="0.5" cx="34.264857" cy="55.7042615" r="4.58572816"></circle>
                                </g>
                                <g id="黄色icon" transform="translate(149.915082, 106.446951) rotate(-22.000000) translate(-149.915082, -106.446951) translate(69.679365, 24.057550)">
                                    <g id="编组备份" transform="translate(80.235718, 82.389401) rotate(30.000000) translate(-80.235718, -82.389401) translate(23.652779, 19.922490)">
                                        <g id="Mask-Copy备份-5" transform="translate(-0.000000, 0.000000)">
                                            <g id="编组" transform="translate(-0.000000, 0.000000)">
                                                <mask id="mask-11" fill="white">
                                                    <use xlink:href="#path-10"></use>
                                                </mask>
                                                <use id="形状结合" fill="#FFD82E" xlink:href="#path-10"></use>
                                                <circle id="椭圆形" fill="#000000" transform="translate(35.881698, 80.486523) rotate(-30.000000) translate(-35.881698, -80.486523) " cx="35.8816984" cy="80.4865225" r="7.40891455"></circle>
                                                <circle id="椭圆形备份" fill="#000000" transform="translate(77.630788, 80.825754) rotate(-30.000000) translate(-77.630788, -80.825754) " cx="77.6307876" cy="80.8257535" r="7.40891455"></circle>
                                            </g>
                                        </g>
                                    </g>
                                </g>
                            </g>
                        </g>
                    </g>
                </g>
            </g>
        </g>
    </g>
</svg>