<?xml version="1.0" encoding="UTF-8"?>
<svg width="240px" height="240px" viewBox="0 0 240 240" version="1.1" xmlns="http://www.w3.org/2000/svg" xmlns:xlink="http://www.w3.org/1999/xlink">
    <title>com.android.bbksoundrecorder_b_s6_1x1_sc</title>
    <g id="com.android.bbksoundrecorder" stroke="none" stroke-width="1" fill="none" fill-rule="evenodd">
        <g id="编组-49备份-4" transform="translate(60.442561, 106.293158)" fill="#F82E52">
            <circle id="椭圆形备份-7" cx="11.9271814" cy="11.9271814" r="11.9271814"></circle>
        </g>
    </g>
</svg>