<?xml version="1.0" encoding="UTF-8"?>
<svg width="240px" height="240px" viewBox="0 0 240 240" version="1.1" xmlns="http://www.w3.org/2000/svg" xmlns:xlink="http://www.w3.org/1999/xlink">
    <title>com.vivo.compass_b_s6_1x1_bg</title>
    <g id="com.vivo.compass" stroke="none" stroke-width="1" fill="none" fill-rule="evenodd">
        <g id="编组" transform="translate(27.000000, 27.000000)" fill="#FFFFFF">
            <path d="M93,0 C144.362482,-9.43513483e-15 186,41.6375183 186,93 C186,144.362482 144.362482,186 93,186 C41.6375183,186 6.29008989e-15,144.362482 0,93 C-6.29008989e-15,41.6375183 41.6375183,9.43513483e-15 93,0 Z" id="矩形"></path>
        </g>
    </g>
</svg>