<?xml version="1.0" encoding="UTF-8"?>
<svg width="240px" height="240px" viewBox="0 0 240 240" version="1.1" xmlns="http://www.w3.org/2000/svg" xmlns:xlink="http://www.w3.org/1999/xlink">
    <title>com.android.bbk.lockscreen_b_s6_1x1_sc</title>
    <g id="com.android.bbk.lockscreen" stroke="none" stroke-width="1" fill="none" fill-rule="evenodd">
        <g id="编组-20" transform="translate(109.521127, 99.042254)" fill="#8B8B8B">
            <rect id="矩形" x="5.23943662" y="5.23943662" width="10.4788732" height="35.3661972" rx="5.23943662"></rect>
            <circle id="椭圆形" cx="10.4788732" cy="10.4788732" r="10.4788732"></circle>
        </g>
    </g>
</svg>