<?xml version="1.0" encoding="UTF-8"?>
<svg width="240px" height="240px" viewBox="0 0 240 240" version="1.1" xmlns="http://www.w3.org/2000/svg" xmlns:xlink="http://www.w3.org/1999/xlink">
    <title>com.bbk.calendar_b_s6_1x1_mc</title>
    <g id="com.bbk.calendar" stroke="none" stroke-width="1" fill="none" fill-rule="evenodd">
        <path d="M104.009524,63.887619 L104.009524,55.8609524 L88.3528571,55.8609524 L88.3528571,63.887619 L104.009524,63.887619 Z M102.048857,59.104619 L90.3118571,59.104619 L90.3128571,57.447619 L102.049524,57.447619 L102.048857,59.104619 Z M102.049524,62.3009524 L90.3128571,62.3009524 L90.3118571,60.667619 L102.048857,60.667619 L102.049524,62.3009524 Z M106.15619,74.9242857 L106.15619,73.3142857 L97.4288571,73.314619 L97.4288571,71.167619 L104.569524,71.167619 L104.569524,69.557619 L97.4288571,69.557619 L97.4288571,67.691619 L105.409524,67.6909524 L105.409524,66.0342857 L97.4288571,66.034619 L97.4295238,64.4242857 L95.3995238,64.4242857 L95.3988571,66.034619 L90.9488571,66.034619 L91.1191534,65.7581746 C91.2237213,65.5831746 91.3254806,65.4078505 91.4244312,65.2322024 L91.7128571,64.7042857 L89.9161905,63.9109524 C89.4184127,64.8909524 88.8234127,65.8631746 88.1311905,66.827619 C87.4389683,67.7920635 86.6884127,68.6942857 85.8795238,69.5342857 L85.8795238,69.5342857 L87.2561905,70.7709524 C88.1428571,69.8531746 88.9673016,68.8770635 89.7295238,67.842619 L89.7295238,67.842619 L89.8378571,67.691619 L95.3988571,67.691619 L95.3988571,69.557619 L88.9595238,69.557619 L88.9595238,71.167619 L95.3988571,71.167619 L95.3988571,73.314619 L86.1828571,73.3142857 L86.1828571,74.9242857 L106.15619,74.9242857 Z M120.71619,70.0942857 L120.71619,68.437619 L118.825857,68.437619 L118.825857,59.057619 L120.669524,59.057619 L120.669524,57.4009524 L118.825857,57.401619 L118.82619,55.1609524 L117.07619,55.1609524 L117.075857,57.401619 L112.992857,57.401619 L112.992857,55.1609524 L111.242857,55.1609524 L111.242857,57.401619 L109.539524,57.4009524 L109.539524,59.057619 L111.242857,59.057619 L111.242857,68.437619 L108.95619,68.437619 L108.95619,70.0942857 L120.71619,70.0942857 Z M120.29619,76.0442857 C121.182857,74.877619 121.832302,73.8392857 122.244524,72.9292857 C122.656746,72.0192857 122.932857,70.9770635 123.072857,69.802619 C123.100857,69.5677302 123.126368,69.3133968 123.14939,69.039619 L123.151857,68.997619 L127.318857,68.997619 L127.319524,72.2642857 C127.319524,72.7344092 127.242706,73.066261 127.089071,73.2598413 L127.027857,73.3259524 C126.833413,73.5048413 126.440635,73.5942857 125.849524,73.5942857 L125.849524,73.5942857 L123.772857,73.5942857 L124.192857,75.437619 L126.199524,75.437619 C126.94619,75.437619 127.525635,75.3559524 127.937857,75.192619 C128.350079,75.0292857 128.637857,74.7531746 128.80119,74.3642857 C128.964524,73.9753968 129.04619,73.4231746 129.04619,72.707619 L129.04619,72.707619 L129.04619,56.257619 L121.55619,56.257619 L121.55619,63.887619 C121.55619,66.1742857 121.497857,67.877619 121.38119,68.997619 C121.264524,70.117619 121.000079,71.1015079 120.587857,71.9492857 C120.175635,72.7970635 119.495079,73.7731746 118.54619,74.877619 L118.54619,74.877619 L120.29619,76.0442857 Z M127.318857,61.811619 L123.305857,61.811619 L123.30619,58.1242857 L127.319524,58.1242857 L127.318857,61.811619 Z M117.075857,61.087619 L112.992857,61.087619 L112.992857,59.057619 L117.075857,59.057619 L117.075857,61.087619 Z M117.075857,64.774619 L112.992857,64.774619 L112.992857,62.721619 L117.075857,62.721619 L117.075857,64.774619 Z M127.318857,67.224619 L123.254857,67.224619 L123.257657,67.163619 C123.279435,66.5776931 123.294299,65.9377549 123.30225,65.2438042 L123.30619,64.8209524 L123.305857,63.561619 L127.318857,63.561619 L127.318857,67.224619 Z M117.075857,68.437619 L112.992857,68.437619 L112.992857,66.361619 L117.075857,66.361619 L117.075857,68.437619 Z M118.289524,74.2709524 L119.502857,72.987619 C118.818413,72.3187302 118.258413,71.7898413 117.822857,71.4009524 C117.620635,71.2142857 117.418413,71.027619 117.21619,70.8409524 L117.21619,70.8409524 L116.609524,70.2809524 L115.372857,71.4942857 C115.730635,71.7898413 116.09619,72.1203968 116.469524,72.4859524 C116.842857,72.8515079 117.223968,73.2287302 117.612857,73.617619 C117.737302,73.7265079 117.853968,73.8353968 117.962857,73.9442857 L117.962857,73.9442857 L118.289524,74.2709524 Z M110.35619,75.7642857 C111.009524,75.2198413 111.705635,74.5548413 112.444524,73.7692857 C113.183413,72.9837302 113.848413,72.2020635 114.439524,71.4242857 L114.439524,71.4242857 L112.992857,70.3042857 C112.448413,71.0353968 111.818413,71.7703968 111.102857,72.5092857 C110.387302,73.2481746 109.695079,73.8820635 109.02619,74.4109524 L109.02619,74.4109524 L110.35619,75.7642857 Z M153.359524,61.997619 L153.359524,60.0142857 L143.455857,60.014619 L144.982857,59.4542857 C144.77545,58.9841623 144.478934,58.3450402 144.09331,57.5369195 L143.944524,57.2259524 C143.485635,56.2692857 143.085079,55.4565079 142.742857,54.787619 L142.742857,54.787619 L140.73619,55.5342857 C141.093968,56.2187302 141.490635,57.0315079 141.92619,57.972619 C142.264956,58.7045944 142.533145,59.3212953 142.730758,59.8227219 L142.804857,60.014619 L132.592857,60.0142857 L132.592857,61.997619 L153.359524,61.997619 Z M151.23619,75.6242857 L153.19619,74.5042857 L152.192857,72.777619 C149.999524,69.1065079 148.202857,66.2287302 146.802857,64.1442857 L146.802857,64.1442857 L144.982857,65.217619 C145.978413,66.757619 147.102302,68.5620635 148.354524,70.6309524 C149.606746,72.6998413 150.567302,74.3642857 151.23619,75.6242857 L151.23619,75.6242857 Z M134.622857,75.7409524 C135.773968,74.3409524 136.909524,72.6998413 138.029524,70.817619 C139.149524,68.9353968 140.137302,67.0220635 140.992857,65.077619 L140.992857,65.077619 L138.91619,64.307619 C138.185079,66.127619 137.282857,67.9437302 136.209524,69.7559524 C135.13619,71.5681746 134.008413,73.1431746 132.82619,74.4809524 L132.82619,74.4809524 L134.622857,75.7409524 Z" id="星期六" fill="#000000" fill-rule="nonzero"></path>
        <path d="M106.154046,156.333333 C106.465157,156.333333 106.729602,156.224444 106.94738,156.006667 C107.165157,155.788889 107.274046,155.524444 107.274046,155.213333 L107.274046,155.213333 L107.274046,92.12 C107.274046,91.8088889 107.165157,91.5444444 106.94738,91.3266667 C106.729602,91.1088889 106.465157,91 106.154046,91 L106.154046,91 L94.8607128,91 C94.4251573,91 93.9584906,91.0933333 93.4607128,91.28 L93.4607128,91.28 L85.8073795,94.36 C85.2473795,94.6088889 84.9673795,95.0444444 84.9673795,95.6666667 L84.9673795,95.6666667 L85.2473795,103.693333 C85.2473795,104.377778 85.5896017,104.72 86.2740462,104.72 L86.2740462,104.72 L86.4607128,104.72 L93.6473795,103.88 C93.9584906,103.88 94.1140462,104.004444 94.1140462,104.253333 L94.1140462,104.253333 L94.1140462,155.213333 C94.1140462,155.524444 94.2229351,155.788889 94.4407128,156.006667 C94.6584906,156.224444 94.9229351,156.333333 95.2340462,156.333333 L95.2340462,156.333333 L106.154046,156.333333 Z M133.808889,157.08 C137.604444,157.08 140.933333,156.1 143.795556,154.14 C146.657778,152.18 148.742222,149.488889 150.048889,146.066667 C151.044444,143.204444 151.542222,140.342222 151.542222,137.48 C151.542222,133.871111 150.92,130.728889 149.675556,128.053333 C148.68,125.688889 147.155556,123.853333 145.102222,122.546667 C144.791111,122.36 144.76,122.142222 145.008889,121.893333 C147.248889,120.462222 148.835556,118.626667 149.768889,116.386667 C150.951111,113.711111 151.542222,110.848889 151.542222,107.8 C151.542222,104.564444 150.92,101.64 149.675556,99.0266667 C148.306667,96.04 146.222222,93.7533333 143.422222,92.1666667 C140.622222,90.58 137.417778,89.7866667 133.808889,89.7866667 C130.137778,89.7866667 126.886667,90.6111111 124.055556,92.26 C121.224444,93.9088889 119.155556,96.1955556 117.848889,99.12 C116.666667,101.546667 116.075556,104.44 116.075556,107.8 C116.075556,110.848889 116.666667,113.742222 117.848889,116.48 C118.782222,118.72 120.337778,120.586667 122.515556,122.08 C122.888889,122.266667 122.888889,122.453333 122.515556,122.64 C120.213333,124.071111 118.626667,125.968889 117.755556,128.333333 C116.635556,130.946667 116.075556,133.995556 116.075556,137.48 C116.075556,140.653333 116.573333,143.515556 117.568889,146.066667 C118.875556,149.551111 120.96,152.257778 123.822222,154.186667 C126.684444,156.115556 130.013333,157.08 133.808889,157.08 Z M133.808889,117.413333 C132.751111,117.413333 131.864444,117.04 131.148889,116.293333 C130.433333,115.546667 129.951111,114.551111 129.702222,113.306667 C129.266667,111.875556 129.048889,110.444444 129.048889,109.013333 C129.048889,107.582222 129.235556,106.306667 129.608889,105.186667 C129.92,103.88 130.433333,102.868889 131.148889,102.153333 C131.864444,101.437778 132.751111,101.08 133.808889,101.08 C134.804444,101.08 135.66,101.437778 136.375556,102.153333 C137.091111,102.868889 137.604444,103.817778 137.915556,105 C138.351111,106.12 138.568889,107.488889 138.568889,109.106667 C138.568889,110.6 138.382222,111.968889 138.008889,113.213333 C137.76,114.457778 137.262222,115.468889 136.515556,116.246667 C135.768889,117.024444 134.866667,117.413333 133.808889,117.413333 Z M133.808889,145.786667 C132.626667,145.786667 131.662222,145.351111 130.915556,144.48 C130.168889,143.608889 129.671111,142.426667 129.422222,140.933333 C129.173333,139.688889 129.048889,138.195556 129.048889,136.453333 C129.048889,134.897778 129.204444,133.404444 129.515556,131.973333 C129.764444,130.542222 130.262222,129.422222 131.008889,128.613333 C131.755556,127.804444 132.688889,127.4 133.808889,127.4 C134.866667,127.4 135.753333,127.788889 136.468889,128.566667 C137.184444,129.344444 137.697778,130.417778 138.008889,131.786667 C138.382222,133.155556 138.568889,134.773333 138.568889,136.64 C138.568889,137.76 138.444444,139.128889 138.195556,140.746667 C138.008889,142.302222 137.526667,143.531111 136.748889,144.433333 C135.971111,145.335556 134.991111,145.786667 133.808889,145.786667 Z" id="18" fill="#000000" fill-rule="nonzero"></path>
    </g>
</svg>