<?xml version="1.0" encoding="UTF-8"?>
<svg width="240px" height="240px" viewBox="0 0 240 240" version="1.1" xmlns="http://www.w3.org/2000/svg" xmlns:xlink="http://www.w3.org/1999/xlink">
    <title>com.vivo.wallet_b_s6_1x1_sc</title>
    <g id="com.vivo.wallet" stroke="none" stroke-width="1" fill="none" fill-rule="evenodd">
        <path d="M178.860107,164.019792 C183.956539,164.019792 184.409819,168.166908 184.409819,169.433983 C184.409819,170.701166 183.956539,174.848282 178.860107,174.848282 L178.860107,174.848282 L173.956305,174.848282 C168.859982,174.848282 168.406702,170.701166 168.406702,169.433983 C168.406702,168.166908 168.859982,164.019792 173.956305,164.019792 L173.956305,164.019792 Z M153.068138,164.273662 C153.748874,164.273662 153.888939,164.389392 154.151656,164.777219 C154.274156,164.958256 155.329571,166.559798 156.420502,168.216616 L156.732388,168.690317 C157.873829,170.424088 158.960449,172.075823 158.960449,172.075823 C159.10552,172.28832 159.259298,172.374251 159.450622,172.374251 C159.642056,172.374251 159.795833,172.28832 159.940905,172.075823 C159.940905,172.075823 161.027499,170.424088 162.1689,168.690317 L162.480775,168.216616 C163.571667,166.559798 164.627031,164.958256 164.74948,164.777219 C165.012197,164.389392 165.15248,164.273662 165.833216,164.273662 L165.833216,164.273662 L167.422579,164.273662 C167.788468,164.273662 167.95574,164.558437 167.725781,164.90617 C167.620433,165.065547 166.471069,166.803324 165.256834,168.639154 L164.924806,169.141154 C163.596146,171.149979 162.296218,173.115338 162.296218,173.115338 C161.453542,174.349363 160.835058,174.848261 159.450622,174.848261 C158.066187,174.848261 157.447811,174.349363 156.605244,173.115338 C156.605244,173.115338 155.305289,171.149979 153.976589,169.141154 L153.64455,168.639154 C152.430276,166.803324 151.280862,165.065547 151.175464,164.90617 C150.945504,164.558437 151.112886,164.273662 151.478666,164.273662 L151.478666,164.273662 Z M148.187223,164.273716 C148.669343,164.273716 148.860559,164.463999 148.860559,164.944259 L148.860559,174.177663 C148.860559,174.657923 148.669343,174.848206 148.187223,174.848206 L146.985842,174.848206 C146.503613,174.848206 146.312397,174.657923 146.312397,174.177663 L146.312397,164.944259 C146.312397,164.463999 146.503613,164.273716 146.985842,164.273716 L148.187223,164.273716 Z M129.339741,164.273662 C130.020477,164.273662 130.160868,164.389392 130.423368,164.777219 C130.545868,164.958256 131.601282,166.559798 132.692214,168.216616 L133.0041,168.690317 C134.14554,170.424088 135.23216,172.075823 135.23216,172.075823 C135.377232,172.28832 135.530901,172.374251 135.722334,172.374251 C135.913767,172.374251 136.067545,172.28832 136.212507,172.075823 C136.212507,172.075823 137.299153,170.424088 138.44062,168.690317 L138.752514,168.216616 C139.84347,166.559798 140.898909,164.958256 141.021409,164.777219 C141.284017,164.389392 141.424191,164.273662 142.105036,164.273662 L142.105036,164.273662 L143.694399,164.273662 C144.102841,164.273662 144.227452,164.558437 143.997601,164.90617 C143.892203,165.065547 142.742812,166.803324 141.528562,168.639154 L141.196531,169.141154 C140.033942,170.898876 138.893361,172.623319 138.626381,173.026965 L138.574608,173.105241 L138.574608,173.105241 L138.56793,173.115338 C137.725254,174.349363 137.106769,174.848261 135.722334,174.848261 C134.337899,174.848261 133.719414,174.349363 132.876847,173.115338 C132.876847,173.115338 132.87459,173.111926 132.870168,173.105241 L132.818395,173.026965 C132.551415,172.623319 131.410834,170.898876 130.248246,169.141154 L129.916214,168.639154 C128.701964,166.803324 127.552573,165.065547 127.447175,164.90617 C127.217107,164.558437 127.341827,164.273662 127.750377,164.273662 L127.750377,164.273662 Z M178.860107,166.49521 L173.956305,166.49521 C171.199624,166.49521 170.954537,168.74621 170.954537,169.433983 C170.954537,170.121755 171.199624,172.372756 173.956305,172.372756 L173.956305,172.372756 L178.860107,172.372756 C181.616788,172.372756 181.861984,170.121755 181.861984,169.433983 C181.861984,168.74621 181.616788,166.49521 178.860107,166.49521 L178.860107,166.49521 Z M148.133145,160.196211 L148.970053,161.029514 C149.361409,161.4194 149.361409,161.728448 148.970053,162.118225 L148.133145,162.95142 C147.74179,163.341306 147.431296,163.341306 147.039615,162.95142 L146.202924,162.118225 C145.811352,161.728448 145.811352,161.4194 146.202924,161.029514 L147.039615,160.19632 C147.431296,159.806434 147.74179,159.806434 148.133145,160.196211 Z" id="形状结合备份" fill="#8E8E8E"></path>
    </g>
</svg>