<?xml version="1.0" encoding="UTF-8"?>
<svg width="240px" height="240px" viewBox="0 0 240 240" version="1.1" xmlns="http://www.w3.org/2000/svg" xmlns:xlink="http://www.w3.org/1999/xlink">
    <title>com.android.camera.packet.CameraPacketActivity_b_s6_1x1_bg</title>
    <g id="com.android.camera.packet.CameraPacketActivity" stroke="none" stroke-width="1" fill="none" fill-rule="evenodd">
        <g id="编组-48" transform="translate(60.585636, 82.586911)" fill="#000000">
            <path d="M55.3023229,70.6572382 L109.62405,97.2732881 C109.361867,97.5091346 109.070446,97.7206751 108.751302,97.9023897 C107.997743,98.3314517 107.145151,98.5571061 106.277582,98.5571061 L4.99199763,98.5571061 C3.59260916,98.5571061 2.32770794,97.9824371 1.4212979,97.0566598 L55.3023229,70.6572382 Z M1.34109112,96.9728217 C0.5091075,96.0827918 0,94.8882259 0,93.5749868 C0,92.7091343 0.226101775,91.8582299 0.65601453,91.1061619 L51.2988068,2.51417879 C52.1600025,1.00764586 53.6897884,0.120127288 55.3028738,0.0113669282 C56.2483545,-0.0524991413 57.2231387,0.151487608 58.10851,0.655600869 C58.8847714,1.09758909 59.5279084,1.73945351 59.970773,2.51417879 L110.613565,91.1061619 C111.776748,93.1409765 111.345213,95.6490077 109.713347,97.1909599 L55.3022521,70.6572382 L1.34109112,96.9728217 Z" id="形状结合"></path>
        </g>
    </g>
</svg>