<?xml version="1.0" encoding="UTF-8"?>
<svg width="480px" height="240px" viewBox="0 0 480 240" version="1.1" xmlns="http://www.w3.org/2000/svg" xmlns:xlink="http://www.w3.org/1999/xlink">
    <title>com.android.filemanager_b_s5_2x1_1_mc</title>
    <g id="com.android.filemanager" stroke="none" stroke-width="1" fill="none" fill-rule="evenodd">
        <path d="M404.616689,73 C409.965801,73 411.905519,73.5569537 413.861074,74.6027962 C415.81663,75.6486388 417.351361,77.1833702 418.397204,79.1389258 C419.443046,81.0944813 420,83.0341988 420,88.3833112 L420,165.616689 C420,166.065639 419.996077,166.490572 419.98827,166.893515 L359.349132,166.892795 C354.629408,166.892795 350.566143,163.595807 349.575089,159.006791 L349.520353,158.735374 L348.440124,152.973163 C347.48249,147.864901 343.085975,144.137576 337.916442,144.003725 L337.628467,144 L137.999992,144 L138,88.3833112 C138,83.0341988 138.556954,81.0944813 139.602796,79.1389258 C140.648639,77.1833702 142.18337,75.6486388 144.138926,74.6027962 C146.094481,73.5569537 148.034199,73 153.383311,73 L404.616689,73 Z M273.847809,114.690909 L171.848058,114.690909 C171.402299,114.690909 171.240656,114.737322 171.077693,114.824475 C170.91473,114.911629 170.786836,115.039523 170.699682,115.202486 C170.612529,115.365449 170.566116,115.527092 170.566116,115.972852 L170.566116,115.972852 L170.566116,118.208966 C170.566116,118.654726 170.612529,118.816369 170.699682,118.979332 C170.786836,119.142295 170.91473,119.270189 171.077693,119.357343 C171.240656,119.444496 171.402299,119.490909 171.848058,119.490909 L171.848058,119.490909 L273.847809,119.490909 C274.293569,119.490909 274.455212,119.444496 274.618175,119.357343 C274.781138,119.270189 274.909032,119.142295 274.996186,118.979332 C275.083339,118.816369 275.129752,118.654726 275.129752,118.208966 L275.129752,118.208966 L275.129752,115.972852 C275.129752,115.527092 275.083339,115.365449 274.996186,115.202486 C274.909032,115.039523 274.781138,114.911629 274.618175,114.824475 C274.455212,114.737322 274.293569,114.690909 273.847809,114.690909 L273.847809,114.690909 Z M176.977789,94.0401939 L170.724949,94.0401939 L170.724949,103.040194 L172.418196,103.040194 L172.418196,99.5078105 L176.468709,99.5078105 L176.468709,97.9339763 L172.418196,97.9339763 L172.418196,95.6256862 L176.977789,95.6256862 L176.977789,94.0401939 Z M180.10421,96.4401939 L178.228358,96.4401939 L178.228358,103.040194 L180.10421,103.040194 L180.10421,96.4401939 Z M182.605346,94.0401939 L180.729494,94.0401939 L180.729494,103.040194 L182.605346,103.040194 L182.605346,94.0401939 Z M187.004508,95.8401939 C186.32453,95.8401939 185.748027,95.997931 185.274999,96.3134053 C184.801971,96.6288795 184.4472,97.0561673 184.210686,97.5952688 C183.974171,98.1343703 183.855914,98.739362 183.855914,99.4102439 C183.855914,100.105086 183.977867,100.726051 184.221772,101.273139 C184.465677,101.820227 184.831535,102.251508 185.319345,102.566983 C185.807156,102.882457 186.398441,103.040194 187.093201,103.040194 C187.847089,103.040194 188.467939,102.872473 188.955749,102.537033 C189.394778,102.235136 189.729039,101.748866 189.958532,101.078224 L189.958532,101.078224 L190.031149,100.847848 L188.490112,100.847848 L188.420267,100.984899 C188.316792,101.15869 188.171927,101.2967 187.985672,101.398929 C187.752853,101.526716 187.455363,101.59061 187.093201,101.59061 C186.775385,101.59061 186.49822,101.522723 186.261706,101.386949 C186.025192,101.251176 185.844111,101.067482 185.718463,100.835868 C185.617944,100.650577 185.559998,100.452507 185.544625,100.241658 L185.544625,100.241658 L185.541077,100.081126 L190.108755,100.081126 L190.108755,99.3383637 L190.101854,99.0646566 C190.074251,98.5243326 189.963838,98.02655 189.770614,97.5713087 C189.545187,97.0401939 189.199654,96.6188961 188.734017,96.3074152 C188.26838,95.9959344 187.691877,95.8401939 187.004508,95.8401939 Z M196.384298,100.359806 L194.447934,100.359806 L194.447934,102.759806 L196.384298,102.759806 L196.384298,100.359806 Z M187.312945,97.6401939 C187.648346,97.6401939 187.933837,97.7018606 188.169416,97.8251939 C188.404996,97.9485273 188.578686,98.1018606 188.690486,98.2851939 C188.802287,98.4685273 188.858187,98.6535273 188.858187,98.8401939 L188.858187,98.8401939 L185.731767,98.8401939 L185.738714,98.7283939 C185.757241,98.5795939 185.812822,98.4318606 185.905457,98.2851939 C186.02125,98.1018606 186.196937,97.9485273 186.432516,97.8251939 C186.668096,97.7018606 186.961572,97.6401939 187.312945,97.6401939 Z M179.171968,93.4401939 C178.891538,93.4401939 178.664162,93.5216754 178.48984,93.6846384 C178.315518,93.8476013 178.228358,94.0661199 178.228358,94.3401939 C178.228358,94.5920458 178.317413,94.8050088 178.495524,94.9790828 C178.673636,95.1531569 178.899117,95.2401939 179.171968,95.2401939 C179.429661,95.2401939 179.649458,95.1531569 179.831359,94.9790828 C180.013259,94.8050088 180.10421,94.5920458 180.10421,94.3401939 C180.10421,94.0735273 180.015154,93.8568606 179.837043,93.6901939 C179.658932,93.5235273 179.43724,93.4401939 179.171968,93.4401939 Z" id="形状结合" fill="#FFFFFF"></path>
        <path d="M171,53 L387,53 C393.627417,53 399,58.372583 399,65 L399,73 L399,73 L159,73 L159,65 C159,58.372583 164.372583,53 171,53 Z" id="矩形" fill="#FFFFFF" opacity="0.5"></path>
    </g>
</svg>