<?xml version="1.0" encoding="UTF-8"?>
<svg width="480px" height="240px" viewBox="0 0 480 240" version="1.1" xmlns="http://www.w3.org/2000/svg" xmlns:xlink="http://www.w3.org/1999/xlink">
    <title>com.android.filemanager_b_s5_2x1_2_mc</title>
    <g id="com.android.filemanager" stroke="none" stroke-width="1" fill="none" fill-rule="evenodd">
        <path d="M404.616689,76.6079712 C409.965801,76.6079712 411.905519,77.1649249 413.861074,78.2107674 C415.81663,79.25661 417.351361,80.7913414 418.397204,82.746897 C419.443046,84.7024525 420,86.64217 420,91.9912824 L420,165.616689 C420,166.065639 419.996077,166.490572 419.98827,166.893515 L359.349132,166.892795 C354.629408,166.892795 350.566143,163.595807 349.575089,159.006791 L349.520353,158.735374 L348.440124,152.973163 C347.48249,147.864901 343.085975,144.137576 337.916442,144.003725 L337.628467,144 L137.999992,143.999971 L138,91.9912824 C138,86.64217 138.556954,84.7024525 139.602796,82.746897 C140.648639,80.7913414 142.18337,79.25661 144.138926,78.2107674 C146.094481,77.1649249 148.034199,76.6079712 153.383311,76.6079712 L404.616689,76.6079712 Z M176.977797,115.040194 L170.724956,115.040194 L170.724956,124.040194 L172.418204,124.040194 L172.418204,120.507811 L176.468716,120.507811 L176.468716,118.933976 L172.418204,118.933976 L172.418204,116.625686 L176.977797,116.625686 L176.977797,115.040194 Z M180.104218,117.440194 L178.228365,117.440194 L178.228365,124.040194 L180.104218,124.040194 L180.104218,117.440194 Z M182.605354,115.040194 L180.729502,115.040194 L180.729502,124.040194 L182.605354,124.040194 L182.605354,115.040194 Z M187.004516,116.840194 C186.324538,116.840194 185.748035,116.997931 185.275007,117.313405 C184.801979,117.628879 184.447207,118.056167 184.210693,118.595269 C183.974179,119.13437 183.855922,119.739362 183.855922,120.410244 C183.855922,121.105086 183.977875,121.726051 184.22178,122.273139 C184.465685,122.820227 184.831543,123.251508 185.319353,123.566983 C185.807163,123.882457 186.398449,124.040194 187.093209,124.040194 C187.847097,124.040194 188.467947,123.872473 188.955757,123.537033 C189.394786,123.235136 189.729047,122.748866 189.95854,122.078224 L189.95854,122.078224 L190.031157,121.847848 L188.49012,121.847848 L188.420274,121.984899 C188.316799,122.15869 188.171935,122.2967 187.98568,122.398929 C187.752861,122.526716 187.455371,122.59061 187.093209,122.59061 C186.775393,122.59061 186.498228,122.522723 186.261714,122.386949 C186.0252,122.251176 185.844119,122.067482 185.718471,121.835868 C185.617952,121.650577 185.560006,121.452507 185.544633,121.241658 L185.544633,121.241658 L185.541085,121.081126 L190.108763,121.081126 L190.108763,120.338364 L190.101862,120.064657 C190.074259,119.524333 189.963845,119.02655 189.770622,118.571309 C189.545194,118.040194 189.199662,117.618896 188.734025,117.307415 C188.268388,116.995934 187.691885,116.840194 187.004516,116.840194 Z M196.384305,121.359806 L194.447942,121.359806 L194.447942,123.759806 L196.384305,123.759806 L196.384305,121.359806 Z M187.312953,118.640194 C187.648354,118.640194 187.933845,118.701861 188.169424,118.825194 C188.405004,118.948527 188.578694,119.101861 188.690494,119.285194 C188.802295,119.468527 188.858195,119.653527 188.858195,119.840194 L188.858195,119.840194 L185.731775,119.840194 L185.738722,119.728394 C185.757249,119.579594 185.81283,119.431861 185.905465,119.285194 C186.021258,119.101861 186.196944,118.948527 186.432524,118.825194 C186.668103,118.701861 186.96158,118.640194 187.312953,118.640194 Z M179.171976,114.440194 C178.891546,114.440194 178.664169,114.521675 178.489848,114.684638 C178.315526,114.847601 178.228365,115.06612 178.228365,115.340194 C178.228365,115.592046 178.317421,115.805009 178.495532,115.979083 C178.673643,116.153157 178.899125,116.240194 179.171976,116.240194 C179.429669,116.240194 179.649466,116.153157 179.831366,115.979083 C180.013267,115.805009 180.104218,115.592046 180.104218,115.340194 C180.104218,115.073527 180.015162,114.856861 179.837051,114.690194 C179.65894,114.523527 179.437248,114.440194 179.171976,114.440194 Z" id="形状结合" fill="#FFFFFF"></path>
        <path d="M171,63 L387,63 C393.627417,63 399,68.372583 399,75 L399,77 L399,77 L159,77 L159,75 C159,68.372583 164.372583,63 171,63 Z" id="矩形" fill="#FFFFFF" opacity="0.5"></path>
        <path d="M192,52 L372,52 C378.075132,52 383,56.9248678 383,63 L383,63 L383,63 L181,63 C181,56.9248678 185.924868,52 192,52 Z" id="矩形" fill="#FFFFFF" opacity="0.300000012"></path>
    </g>
</svg>