<?xml version="1.0" encoding="UTF-8"?>
<svg width="480px" height="480px" viewBox="0 0 480 480" version="1.1" xmlns="http://www.w3.org/2000/svg" xmlns:xlink="http://www.w3.org/1999/xlink">
    <title>com.android.notes_b_s5_2x2_0_sc</title>
    <defs>
        <path d="M3.69482223e-13,0 L69.8991224,95.8203007 L69.899,95.81 L69.9024738,95.8145503 L69.9040458,231.781134 C69.430286,231.586011 69.0059372,231.265488 68.6838365,230.837024 L1.56319402e-13,139.4725 L3.69482223e-13,0 Z" id="path-1"></path>
    </defs>
    <g id="com.android.notes" stroke="none" stroke-width="1" fill="none" fill-rule="evenodd">
        <g id="编组-8备份-24" transform="translate(239.499549, 238.890567) rotate(-270.000000) translate(-239.499549, -238.890567) translate(123.608982, 203.938544)">
            <g id="路径-11" transform="translate(115.890567, 34.952023) rotate(-90.000000) translate(-115.890567, -34.952023) translate(80.938544, -80.938544)">
                <mask id="mask-2" fill="white">
                    <use xlink:href="#path-1"></use>
                </mask>
                <use id="形状结合" fill="#FFD062" xlink:href="#path-1"></use>
            </g>
        </g>
    </g>
</svg>