<?xml version="1.0" encoding="UTF-8"?>
<svg width="240px" height="240px" viewBox="0 0 240 240" version="1.1" xmlns="http://www.w3.org/2000/svg" xmlns:xlink="http://www.w3.org/1999/xlink">
    <title>com.vivo.weather.cloudy_b_s6_1x1_sc</title>
    <g id="com.vivo.weather.cloudy" stroke="none" stroke-width="1" fill="none" fill-rule="evenodd">
        <g id="编组-44" transform="translate(142.387074, 57.814958)" fill="#D8D8D8">
            <path d="M19.784241,0 C37.471046,0 51.8090343,14.2970856 51.8090343,31.9334345 C51.8090343,38.1442207 50.0309023,43.9408867 46.954569,48.8448707 C40.6684189,45.4731164 33.4854442,43.5620907 25.8566755,43.5620907 C25.2471397,43.5620907 24.6404497,43.5742906 24.0390111,43.5991276 C20.1015937,28.9057516 11.5383193,16.0971928 0.000471136434,6.82027926 C5.44618528,2.54859019 12.3167341,0 19.784241,0 Z" id="形状结合备份"></path>
        </g>
    </g>
</svg>