<?xml version="1.0" encoding="UTF-8"?>
<svg width="240px" height="240px" viewBox="0 0 240 240" version="1.1" xmlns="http://www.w3.org/2000/svg" xmlns:xlink="http://www.w3.org/1999/xlink">
    <title>com.vivo.weather.snow_b_s6_1x1_sc</title>
    <g id="com.vivo.weather.snow" stroke="none" stroke-width="1" fill="none" fill-rule="evenodd">
        <g id="编组-31" transform="translate(72.970157, 189.650485)" fill="#FFFFFF">
            <ellipse id="椭圆形" opacity="0.42" cx="4.48018591" cy="5.38834951" rx="4.48018591" ry="4.49029126"></ellipse>
            <ellipse id="椭圆形备份-7" opacity="0.260811942" cx="88.707681" cy="11.6747573" rx="4.48018591" ry="4.49029126"></ellipse>
            <ellipse id="椭圆形备份-5" opacity="0.8" cx="30.4652642" cy="16.1650485" rx="7.16829746" ry="7.18446602"></ellipse>
            <ellipse id="椭圆形备份-6" opacity="0.607468378" cx="60.9305284" cy="5.38834951" rx="5.37622309" ry="5.38834951"></ellipse>
        </g>
        <g id="编组-44备份" transform="translate(27.000000, 32.000000)" fill="#3B9576" opacity="0.949999988">
            <g id="编组-38">
                <path d="M70.9125,0 C103.72814,0 131.337615,22.2301018 139.426086,52.4140861 C140.027524,52.3892491 140.634214,52.3770492 141.24375,52.3770492 C165.961944,52.3770492 186,72.4398301 186,97.1885246 C186,121.937219 165.961944,142 141.24375,142 C140.658798,142 140.076466,141.988764 139.496959,141.966497 L139.497943,142 L72.2213474,142 L72.2214022,141.988461 C71.7946931,141.996142 71.3670613,142 70.9385385,142 C31.7746462,142 0,109.779413 0,70.7211827 C0,31.662952 31.7486077,0 70.9125,0 Z" id="形状结合"></path>
            </g>
        </g>
    </g>
</svg>