{
	"ramperbrightness": {
		"sectiondown": [
			[-2.293005671,6081.782609],
			[-3.489559165,7898.150812],
			[-4.799126638,9321.650655],
			[-6.217054264,10538.23256],
			[-9.393162393,12853.61538],
			[-12.9009901,15000.40594],
			[-24.38596491,20869.22807],
			[-65.46153846,39517.53846],
			[-70.27272727,41576.72727],
			[-109.1111111,56917.88889],
			[-73,42979],
			[-74.85,43672.75],
			[-123.8135593,61054.81356],
			[-178.7142857,77305.42857],
			[-143.6875,67427.875],
			[-208.1666667,84579.33333],
			[-157.2857143,71655.57143],
			[-107.4259259,59340.2037],
			[-131.4634146,63979.43902],
			[-162.1538462,68644.38462],
			[-102,60283],
			[-166.0833333,68870.16667],
			[-245.1818182,78520.18182],
			[-68.5,58908.5],
			[-116.9090909,63216.90909],
			[-35.78571429,56889.28571],
			[-157.4285714,64674.42857],
			[-42.41666667,58118.75],
			[-127.1428571,61931.42857],
			[-90,60520],
			[-100.4,60707.2]
		],
		"section_downpoint": [1518,1087,858,729,612,511,454,428,395,386,375,355,296,282,266,254,247,193,152,139,134,122,111,89,78,64,57,45,38,18,8],
		"section_down_min_step": [22,15,11,9,6,4,3,1,1,1,1,1,1,1,1,1,1,1,1,1,1,1,1,1,1,1,1,1,1,1,1],
		"sectiondowngapminone": 20,
		"sectiondowngapmintwo": 80,
		"sectiondownkeybr": 395,
		"downlcmFlickValue": 2,
		"uptotaltime": 2800,
		"uplimmitcount": 25,
		"section_uppoint": [444,1288],
		"quickupstep": [41,77,71],
		"quickupgap": [20,0,0],
		"quickdownstep": [5,9,13,59],
		"quickdowngap": [40,40,30,20],
		"quick_sectionpoint": [1009,572,352,8],
		"pemtotaltime": 10000
	}
}
