<?xml version="1.0" encoding="UTF-8"?>
<svg width="480px" height="480px" viewBox="0 0 480 480" version="1.1" xmlns="http://www.w3.org/2000/svg" xmlns:xlink="http://www.w3.org/1999/xlink">
    <title>com.vivo.gallery_b_s5_2x2_3_mc</title>
    <g id="com.vivo.gallery" stroke="none" stroke-width="1" fill="none" fill-rule="evenodd">
        <g id="编组-40" transform="translate(115.813333, 143.158586)" fill="#00FF59">
            <path d="M125.439692,32.0562686 L191.466915,139.100403 C197.590471,149.027985 194.506698,162.040003 184.579115,168.163559 C181.246212,170.219368 177.407379,171.308081 173.491437,171.308081 L37.8418959,171.308081 C26.1776419,171.308081 16.7218959,161.852335 16.7218959,150.188081 C16.7218959,146.27214 17.8106087,142.433306 19.8664181,139.100403 L85.8936412,32.0562686 C92.6295521,21.1359282 106.942772,17.7437778 117.863112,24.4796888 C120.944498,26.3803564 123.539025,28.9748832 125.439692,32.0562686 Z" id="山" opacity="0.949999988"></path>
            <path d="M150.170958,72.1522762 L191.466915,139.100403 C194.401691,143.858297 195.221633,149.324655 194.186922,154.401648 L126.746645,154.401414 C117.415242,154.401414 109.850645,146.836817 109.850645,137.505414 C109.850645,134.158187 110.844849,130.886381 112.707134,128.105046 L150.170958,72.1522762 Z" id="形状结合" opacity="0.900000036"></path>
        </g>
    </g>
</svg>