<?xml version="1.0" encoding="UTF-8"?>
<svg width="480px" height="480px" viewBox="0 0 480 480" version="1.1" xmlns="http://www.w3.org/2000/svg" xmlns:xlink="http://www.w3.org/1999/xlink">
    <title>com.vivo.vivoconsole_b_s5_2x2_0_mc</title>
    <defs>
        <path d="M61.5332448,-2.48601674e-15 L376.466755,2.48601674e-15 C397.863205,-1.44444732e-15 405.622075,2.22781467 413.444297,6.41118489 C421.266519,10.5945551 427.405445,16.7334809 431.588815,24.5557031 C435.772185,32.3779253 438,40.136795 438,61.5332448 L438,376.466755 C438,397.863205 435.772185,405.622075 431.588815,413.444297 C427.405445,421.266519 421.266519,427.405445 413.444297,431.588815 C405.622075,435.772185 397.863205,438 376.466755,438 L61.5332448,438 C40.136795,438 32.3779253,435.772185 24.5557031,431.588815 C16.7334809,427.405445 10.5945551,421.266519 6.41118489,413.444297 C2.22781467,405.622075 9.62964878e-16,397.863205 -1.65734449e-15,376.466755 L1.65734449e-15,61.5332448 C-9.62964878e-16,40.136795 2.22781467,32.3779253 6.41118489,24.5557031 C10.5945551,16.7334809 16.7334809,10.5945551 24.5557031,6.41118489 C32.3779253,2.22781467 40.136795,1.44444732e-15 61.5332448,-2.48601674e-15 Z" id="path-1"></path>
        <polygon id="path-3" points="0 0 175.125646 101.044413 175.125646 303.133239 -4.90079529e-12 202.088826"></polygon>
    </defs>
    <g id="com.vivo.vivoconsole" stroke="none" stroke-width="1" fill="none" fill-rule="evenodd">
        <g id="椭圆形" transform="translate(21.000000, 21.000000)">
            <mask id="mask-2" fill="white">
                <use xlink:href="#path-1"></use>
            </mask>
            <use id="蒙版" fill="#FFFFFF" opacity="0" xlink:href="#path-1"></use>
            <path d="M323,39.660254 L518.166605,152.339746 C527.448637,157.69873 533.166605,167.60254 533.166605,178.320508 L533.166605,403.679492 C533.166605,414.39746 527.448637,424.30127 518.166605,429.660254 L323,542.339746 C313.717968,547.69873 302.282032,547.69873 293,542.339746 L97.833395,429.660254 C88.5513627,424.30127 82.833395,414.39746 82.833395,403.679492 L82.833395,178.320508 C82.833395,167.60254 88.5513627,157.69873 97.833395,152.339746 L293,39.660254 C302.282032,34.3012702 313.717968,34.3012702 323,39.660254 Z" id="多边形" fill-opacity="0.079575" fill="#FFFFFF" mask="url(#mask-2)"></path>
            <g id="均衡备份-7" mask="url(#mask-2)">
                <g transform="translate(133.000000, 190.866761)">
                    <g id="编组-4" opacity="0.8" stroke-width="1" fill="none" fill-rule="evenodd">
                        <mask id="mask-4" fill="white">
                            <use xlink:href="#path-3"></use>
                        </mask>
                        <g id="路径-7"></g>
                        <path d="M175.125646,-63.7149854 L317.920403,18.6750745 L317.920403,183.413752 L175.125646,265.803811 L32.3308884,183.413752 L32.3308884,18.6750745 L175.125646,-63.7149854 Z M173.537968,-6.92875975 L79.8649922,47.0835396 L79.8649922,155.005286 L175.125646,209.80967 L267.210944,155.005286 L267.210944,47.0835396 L173.537968,-6.92875975 Z" id="形状结合" fill-opacity="0.7" fill="#00B1F1" fill-rule="nonzero" mask="url(#mask-4)"></path>
                        <polygon id="路径" fill-opacity="0.8" fill="#0075CF" fill-rule="nonzero" mask="url(#mask-4)" points="79.8649922 47.0835396 79.8649922 155.005286 175.125646 209.80967 267.210944 155.005286 267.210944 47.0835396 173.537968 -6.92875975"></polygon>
                    </g>
                    <path d="M269.42407,155.40114 L269.423646,47.7650811 L317.919646,20.3650811 L317.920403,183.413752 L175.125646,265.803811 L175.125646,209.80967 L269.42407,155.40114 Z" id="形状结合" fill="#46BFEB" fill-rule="nonzero" opacity="0.7"></path>
                    <path d="M269.423646,47.9241296 L269.42407,155.40114 L175.125646,209.80967 L175.125646,101.440455 L269.423646,47.9241296 Z" id="形状结合" fill="#00B3F4" fill-rule="nonzero" opacity="0.8"></path>
                </g>
            </g>
        </g>
    </g>
</svg>