<?xml version="1.0" encoding="UTF-8"?>
<svg width="240px" height="480px" viewBox="0 0 240 480" version="1.1" xmlns="http://www.w3.org/2000/svg" xmlns:xlink="http://www.w3.org/1999/xlink">
    <title>com.android.camera.packet.CameraPacketActivity_b_s5_1x2_sc</title>
    <g id="com.android.camera.packet.CameraPacketActivity" stroke="none" stroke-width="1" fill="none" fill-rule="evenodd">
        <path d="M49.6734274,195.42836 L49.6734274,178.475628 L44,178.475628 L44,200.524372 L67.1301271,200.524372 L67.1301271,195.42836 L49.6734274,195.42836 Z M110.063164,183.265879 L110.063164,178.475628 L85.3887906,178.475628 L85.3887906,200.524372 L110.063164,200.524372 L110.063164,195.734121 L90.9279357,195.734121 L90.9279357,191.691285 L109.425323,191.691285 L109.425323,187.070901 L90.9279357,187.070901 L90.9279357,183.265879 L110.063164,183.265879 Z M156.467794,201 C158.414887,201 159.287722,200.014771 159.287722,198.825702 L159.287722,178.475628 L153.782148,178.475628 L153.782148,193.695716 L137.03043,179.49483 C135.85546,178.475628 135.083337,178 133.169814,178 C131.155579,178 130.249174,178.985229 130.249174,180.548006 L130.249174,200.524372 L135.754748,200.524372 L135.754748,185.474151 L152.338613,199.641064 C153.480013,200.592319 154.386418,201 156.467794,201 Z M191.20961,201 C185.099765,201 180.836302,200.252585 178.318509,199.573117 L178.318509,194.680945 L179.03013,194.831928 C181.664444,195.373521 186.161188,196.107829 191.578887,196.107829 L192.511157,196.101957 C197.426884,196.036749 198.024437,195.429001 198.024437,194.307238 C198.024437,193.152142 196.98375,192.778434 195.137368,192.506647 L185.905459,191.181684 L185.176759,191.067235 C181.168638,190.401251 177.882092,189.177894 177.882092,184.658789 C177.882092,180.37144 180.492618,178.06548 190.249922,178.001374 L190.672481,178 C196.110915,178 200.340807,178.509601 202.791459,179.019202 L202.791459,183.911374 L202.270673,183.821442 C199.820423,183.4105 195.943492,182.92801 191.202756,182.89407 L190.019072,182.89387 C184.542512,182.923488 183.857654,183.34515 183.857654,184.522895 C183.857654,185.644018 185.099765,185.949778 186.811865,186.221566 L196.345909,187.580502 C201.280783,188.293944 204,189.924668 204,194.239291 C204,198.893648 201.012219,201 191.20961,201 Z" id="LENS" fill="#FFFFFF" fill-rule="nonzero"></path>
    </g>
</svg>