<?xml version="1.0" encoding="UTF-8"?>
<svg width="240px" height="480px" viewBox="0 0 240 480" version="1.1" xmlns="http://www.w3.org/2000/svg" xmlns:xlink="http://www.w3.org/1999/xlink">
    <title>com.vivo.newsreader_b_s5_1x2_mc</title>
    <g id="com.vivo.newsreader" stroke="none" stroke-width="1" fill="none" fill-rule="evenodd">
        <g id="编组-14" transform="translate(63.238901, 175.801876)" fill="#F74360">
            <path d="M84.4012548,12.8722584 C84.5242404,17.4978168 84.588193,25.2044151 84.5931124,35.9920531 L84.5931124,38.753151 C84.588193,50.0542956 84.5242404,64.4364801 84.4012548,81.8997044 L84.4012548,34.1996792 C84.4012548,33.9267597 84.3826107,33.654159 84.3454528,33.3837809 C83.8948446,30.1049463 80.8715339,27.8122159 77.5926993,28.2628241 L77.5926993,28.2628241 L34.9353593,34.1251962 C31.6034703,34.5830957 29.1209427,37.4301294 29.1209427,40.7933356 L29.1209427,40.7933356 L29.1209427,94.7059112 C29.1209427,94.9788775 29.1395932,95.2515249 29.1767638,95.5219486 L29.15,95.294 L29.1509427,114.969412 L29.1509427,114.969412 C29.1509427,124.01251 33.8434668,129.908109 50.1714779,128.81057 C50.3622444,128.797747 50.543767,128.786044 50.7160457,128.775462 C49.0317281,128.908976 47.4491956,129.024721 45.9665515,129.123548 C32.5126838,130.020329 27.5956792,128.959819 22.9537024,126.550427 L22.9537024,126.550427 L22.5673305,126.346535 L22.1811695,126.136476 C21.5371531,125.781283 20.8895881,125.400722 20.2163394,124.996423 C14.4264008,121.519449 11.8525967,119.405554 9.29269469,116.8073 C3.21538491,110.638943 0,106.769481 0,95.0927661 L0,95.0927661 L0,23.7588729 C0,13.85547 7.49654694,5.87631419 17.3018509,4.51412169 C26.7561885,3.20068687 39.7663449,1.62230205 56.7525756,0.0539269433 C57.8149479,0.0508611837 58.8761649,0.039551131 59.9304784,0.0279968243 L60.7563966,0.0190204857 C61.5806799,0.0102776756 62.3997323,0.0026609668 63.2106177,2.93452762e-13 L64.4204536,0.00020406142 C75.1135779,0.0435665337 84.0937907,1.30836232 84.4012548,12.8722584 Z" id="形状结合"></path>
        </g>
    </g>
</svg>