<?xml version="1.0" encoding="UTF-8"?>
<svg width="240px" height="240px" viewBox="0 0 240 240" version="1.1" xmlns="http://www.w3.org/2000/svg" xmlns:xlink="http://www.w3.org/1999/xlink">
    <title>com.vivo.game_b_s5_1x1_mc</title>
    <defs>
        <filter color-interpolation-filters="auto" id="filter-1">
            <feColorMatrix in="SourceGraphic" type="matrix" values="0 0 0 0 1.000000 0 0 0 0 1.000000 0 0 0 0 1.000000 0 0 0 1.000000 0"></feColorMatrix>
        </filter>
        <filter color-interpolation-filters="auto" id="filter-2">
            <feColorMatrix in="SourceGraphic" type="matrix" values="0 0 0 0 0.847000 0 0 0 0 0.847000 0 0 0 0 0.847000 0 0 0 1.000000 0"></feColorMatrix>
        </filter>
        <linearGradient x1="50%" y1="0%" x2="50%" y2="100%" id="linearGradient-3">
            <stop stop-color="#FFE5B1" offset="0%"></stop>
            <stop stop-color="#FFDC7B" offset="100%"></stop>
        </linearGradient>
        <linearGradient x1="50%" y1="-149.88223%" x2="50%" y2="100%" id="linearGradient-4">
            <stop stop-color="#FFAD03" offset="0%"></stop>
            <stop stop-color="#FFE9AC" offset="100%"></stop>
        </linearGradient>
        <linearGradient x1="50%" y1="-149.88223%" x2="50%" y2="100%" id="linearGradient-5">
            <stop stop-color="#FFAD03" offset="0%"></stop>
            <stop stop-color="#FFE9AC" offset="100%"></stop>
        </linearGradient>
    </defs>
    <g id="com.vivo.game" stroke="none" stroke-width="1" fill="none" fill-rule="evenodd">
        <g filter="url(#filter-1)" id="编组">
            <g transform="translate(58.908180, 61.996681)">
                <g filter="url(#filter-2)" id="游戏中心备份-2">
                    <g id="编组-6">
                        <path d="M64.6119135,2.17388032 L115.09182,105.003319 L115.09182,105.003319 L8.09181962,105.003319 L57.6245371,2.19956542 C58.5558725,0.266605109 60.877843,-0.545372294 62.8108033,0.385963128 C63.5943909,0.763509855 64.2286162,1.39308958 64.6119135,2.17388032 Z" id="合并形状" fill="url(#linearGradient-3)" opacity="0.7"></path>
                        <path d="M14.8193124,32.6484803 L124.09182,105.437094 L124.09182,105.437094 L16.7789702,105.437094 L8.80611719,36.3270533 C8.56021853,34.195562 10.0887934,32.2683066 12.2202846,32.022408 C13.1334116,31.9170655 14.0543128,32.1388987 14.8193124,32.6484803 Z" id="三角形" fill="url(#linearGradient-4)" opacity="0.5" transform="translate(65.968836, 66.720207) scale(-1, 1) translate(-65.968836, -66.720207) "></path>
                        <path d="M6.02502226,32.5781349 L114.009124,103.830548 L114.009124,103.830548 L115.158702,105.437094 L7.8458528,105.437094 L0.0249429574,36.2572585 C-0.216088955,34.1252114 1.31688174,32.2014508 3.44892884,31.9604189 C4.35347726,31.858158 5.26521329,32.0767812 6.02502226,32.5781349 Z" id="合并形状" fill="url(#linearGradient-5)" opacity="0.5"></path>
                    </g>
                </g>
                <g id="编组-6" transform="translate(7.845853, 96.695372)" fill="#FFFFFF">
                    <path d="M53.6564247,18.1177538 C83.2900498,18.1177538 107.312849,14.0619565 107.312849,9.0588769 C107.312849,4.05579734 83.2900498,0 53.6564247,0 C24.0227996,0 0,4.05579734 0,9.0588769 C0,14.0619565 24.0227996,18.1177538 53.6564247,18.1177538 Z" id="椭圆形" transform="translate(53.656425, 9.058877) scale(-1, 1) translate(-53.656425, -9.058877) "></path>
                </g>
            </g>
        </g>
    </g>
</svg>