<?xml version="1.0" encoding="UTF-8"?>
<svg width="240px" height="240px" viewBox="0 0 240 240" version="1.1" xmlns="http://www.w3.org/2000/svg" xmlns:xlink="http://www.w3.org/1999/xlink">
    <title>com.vivo.agent_b_s5_1x1_sc</title>
    <g id="com.vivo.agent" stroke="none" stroke-width="1" fill="none" fill-rule="evenodd">
        <g id="编组-19" transform="translate(93.980769, 103.500000)" fill="#FFFFFF">
            <path d="M19.0384615,0 C20.7909035,-3.21918372e-16 22.2115385,1.42063493 22.2115385,3.17307692 L22.2115385,29.8269231 C22.2115385,31.5793651 20.7909035,33 19.0384615,33 C17.2860195,33 15.8653846,31.5793651 15.8653846,29.8269231 L15.8653846,3.17307692 C15.8653846,1.42063493 17.2860195,7.66007582e-16 19.0384615,0 Z" id="Rectangle-Copy-10"></path>
            <path d="M49.5,0 C51.252442,-3.21918372e-16 52.6730769,1.42063493 52.6730769,3.17307692 L52.6730769,29.8269231 C52.6730769,31.5793651 51.252442,33 49.5,33 C47.747558,33 46.3269231,31.5793651 46.3269231,29.8269231 L46.3269231,3.17307692 C46.3269231,1.42063493 47.747558,7.66007582e-16 49.5,0 Z" id="Rectangle-Copy-14"></path>
            <path d="M3.80769231,7.61538462 C5.5601343,7.61538462 6.98076923,9.03601954 6.98076923,10.7884615 L6.98076923,23.4807692 C6.98076923,25.2332112 5.5601343,26.6538462 3.80769231,26.6538462 C2.05525031,26.6538462 0.634615385,25.2332112 0.634615385,23.4807692 L0.634615385,10.7884615 C0.634615385,9.03601954 2.05525031,7.61538462 3.80769231,7.61538462 Z" id="Rectangle-Copy-11"></path>
            <path d="M34.2692308,7.61538462 C36.0216728,7.61538462 37.4423077,9.03601954 37.4423077,10.7884615 L37.4423077,23.4807692 C37.4423077,25.2332112 36.0216728,26.6538462 34.2692308,26.6538462 C32.5167888,26.6538462 31.0961538,25.2332112 31.0961538,23.4807692 L31.0961538,10.7884615 C31.0961538,9.03601954 32.5167888,7.61538462 34.2692308,7.61538462 Z" id="Rectangle-Copy-15"></path>
        </g>
    </g>
</svg>