<?xml version="1.0" encoding="UTF-8"?>
<svg width="240px" height="480px" viewBox="0 0 240 480" version="1.1" xmlns="http://www.w3.org/2000/svg" xmlns:xlink="http://www.w3.org/1999/xlink">
    <title>com.android.notes_b_s5_1x2_mc</title>
    <g id="com.android.notes" stroke="none" stroke-width="1" fill="none" fill-rule="evenodd">
        <g id="编组-2" transform="translate(55.000000, 175.000000)" fill="#FFD062">
            <path d="M123.107664,1.68 C124.999261,1.68 125.835907,1.85909541 126.544972,2.19813505 L126.84375,2.35317441 C127.634081,2.79242829 128.254337,3.43701549 128.677011,4.25834883 C129.073267,5.02834883 129.295867,5.79250233 129.322144,7.7361775 L129.324775,104.065573 C129.324775,104.434674 129.322443,104.784182 129.317773,105.115776 L129.296747,106.0585 L129.261667,106.903829 L129.212505,107.661847 L129.149232,108.342638 C129.125786,108.557817 129.099983,108.761806 129.071818,108.956285 L128.980235,109.512872 L128.874452,110.022482 C128.855637,110.104063 128.836228,110.184106 128.816227,110.262823 L128.689091,110.720876 C128.666713,110.795124 128.643741,110.868465 128.620173,110.94111 L128.471618,111.370294 L128.308748,111.792837 C127.628598,113.483172 126.604173,114.894557 125.227077,116.038562 L124.880871,116.31739 L124.524588,116.583738 C124.46385,116.627245 124.402303,116.670349 124.339754,116.713107 L123.950877,116.965983 C123.277518,117.382098 122.465068,117.775372 121.319324,118.204124 L120.590328,118.466099 L119.77202,118.739389 L118.855077,119.026792 L85.1415063,129.038926 C84.7777449,129.146955 84.3978606,129.121838 84.0625619,128.983651 L84.3324775,53.32 L84.059,52.946 L84.0603646,8.1409907 C84.0603646,6.31560608 84.2089598,5.4355295 84.4913954,4.72913019 L84.6312,4.41262209 C84.6560668,4.36098951 84.6817121,4.30968216 84.7081292,4.25834883 C85.1308028,3.43701549 85.7510592,2.79242829 86.5413902,2.35317441 L86.8401679,2.19813505 C87.4985857,1.88331253 88.2670094,1.7064011 89.8879434,1.68273428 L123.107664,1.68 Z M45.2622983,-5.12382992e-13 L45.2622983,77.6152856 L45.2598096,119.522733 L45.239996,120.349021 C45.1807155,121.890325 45.0040292,122.79085 44.7191772,123.533834 L44.5677802,123.894435 C44.5143385,124.01175 44.4579349,124.126927 44.3986123,124.242202 C43.8350475,125.337313 43.0080389,126.196762 41.9542643,126.782434 C41.8433407,126.844084 41.7325116,126.9027 41.6196243,126.958238 L41.2726351,127.115574 C40.5576964,127.4116 39.6911629,127.595217 38.208037,127.656823 L37.4129386,127.677414 L36.972816,127.68 L8.28736996,127.68 L7.8472473,127.677414 L7.05214891,127.656823 C5.56902306,127.595217 4.70248955,127.4116 3.98755086,127.115574 L3.64056165,126.958238 C3.52767437,126.9027 3.41684529,126.844084 3.30592164,126.782434 C2.252147,126.196762 1.4251385,125.337313 0.861573652,124.242202 L0.692405715,123.894435 L0.541008712,123.533834 C0.256156753,122.79085 0.079470431,121.890325 0.0201899808,120.349021 L-2.84217094e-14,119.522733 L0,18.2945723 L0.0169033177,17.5098574 C0.0676204358,16.057875 0.219823377,15.2775549 0.473924835,14.5745034 L0.609469018,14.2266649 C1.01758107,13.2437728 1.63033583,12.4281855 2.44890665,11.7783412 L2.59377268,11.665831 L2.89175787,11.4523139 L3.21358935,11.2507876 C3.32655318,11.1851644 3.44605981,11.1208704 3.57467768,11.0572361 L3.99043343,10.8676435 C4.28925097,10.7416755 4.63478715,10.6156694 5.0475894,10.4842704 L5.71981074,10.2824579 L6.09857437,10.1772631 L45.2622983,-5.12382992e-13 Z" id="形状结合"></path>
        </g>
    </g>
</svg>