<?xml version="1.0" encoding="UTF-8"?>
<svg width="480px" height="480px" viewBox="0 0 480 480" version="1.1" xmlns="http://www.w3.org/2000/svg" xmlns:xlink="http://www.w3.org/1999/xlink">
    <title>com.bbk.theme_b_s5_2x2_mc</title>
    <g id="com.bbk.theme" stroke="none" stroke-width="1" fill="none" fill-rule="evenodd">
        <g id="编组-17" transform="translate(172.000000, 222.952490)" fill="#FFFFFF">
            <path d="M82.2606215,71.6833755 L85.0151716,17.9783274 C85.4989902,8.5453894 78.2442956,0.506269806 68.8113576,0.0224512096 C68.5195869,0.00748619343 68.2274807,-5.36678531e-17 67.9353265,0 C58.4899891,1.73508034e-15 50.8330302,7.65695888 50.8330302,17.1022963 C50.8330302,17.3944505 50.8405164,17.6865567 50.8554814,17.9783274 L53.6100316,71.683376 C53.778419,74.9664 51.2535072,77.7643218 47.9704832,77.9327092 C47.8691351,77.9379074 47.7676707,77.9405128 47.6661894,77.940523 L23.8090184,77.942922 C10.6605958,77.9466384 0.00239423935,88.6059118 0,101.754335 L0,113.930563 L0,113.930563 L135.917163,113.930563 L135.917163,101.754335 C135.914771,88.605911 125.256568,77.9466372 112.108144,77.9429241 L88.2044642,77.9405225 C84.9171248,77.9401922 82.2524773,75.2750093 82.2528076,71.9876699 C82.2528178,71.8861884 82.2554233,71.7847238 82.2606215,71.6833755 Z" id="路径" transform="translate(67.958581, 56.965281) scale(1, -1) translate(-67.958581, -56.965281) "></path>
        </g>
    </g>
</svg>