<?xml version="1.0" encoding="UTF-8"?>
<svg width="480px" height="480px" viewBox="0 0 480 480" version="1.1" xmlns="http://www.w3.org/2000/svg" xmlns:xlink="http://www.w3.org/1999/xlink">
    <title>com.vivo.health_b_s5_2x2_mc</title>
    <g id="com.vivo.health" stroke="none" stroke-width="1" fill="none" fill-rule="evenodd">
        <g id="编组-35" transform="translate(70.824902, 115.996906)" fill="#00FF59" fill-rule="nonzero">
            <path d="M137.004872,17.14857 C150.60909,17.14857 163.354701,20.8247025 174.30253,27.2377922 C185.250359,33.650882 194.400406,42.800929 200.813496,53.7487581 C207.226585,64.6965871 210.902718,77.4421982 210.902718,91.046416 L210.902718,182.963328 C210.902718,196.567546 207.226585,209.313157 200.813496,220.260986 C194.400406,231.208815 185.250359,240.358862 174.30253,246.771952 C163.354701,253.185041 150.60909,256.861174 137.004872,256.861174 C123.400654,256.861174 110.655043,253.185041 99.707214,246.771952 C88.759385,240.358862 79.6093379,231.208815 73.1962482,220.260986 C66.7831584,209.313157 63.1070259,196.567546 63.1070259,182.963328 L63.1070259,91.046416 C63.1070259,77.4421982 66.7831584,64.6965871 73.1962482,53.7487581 C79.6093379,42.800929 88.759385,33.650882 99.707214,27.2377922 C110.655043,20.8247025 123.400654,17.14857 137.004872,17.14857 Z M137.004872,69.4495017 C125.00115,69.4495017 115.270211,79.1804407 115.270211,91.1841623 L115.270211,91.1841623 L115.270211,182.825581 C115.270211,194.829303 125.00115,204.560242 137.004872,204.560242 C149.008593,204.560242 158.739532,194.829303 158.739532,182.825581 L158.739532,182.825581 L158.739532,91.1841623 C158.739532,79.1804407 149.008593,69.4495017 137.004872,69.4495017 Z" id="形状结合" opacity="0.949999988" transform="translate(137.004872, 137.004872) rotate(-45.000000) translate(-137.004872, -137.004872) "></path>
            <path d="M169.639852,65.132581 L221.756076,117.24874 C231.37571,126.868374 237.7888,138.480301 240.995345,150.756324 C244.20189,163.032347 244.20189,175.972468 240.995345,188.248491 C237.7888,200.524515 231.37571,212.136441 221.756076,221.756076 C216.292253,227.219898 210.1857,231.649262 203.679792,235.044166 C179.004834,247.372614 149.073777,245.421148 126.106967,229.332128 C123.008226,227.076483 120.044351,224.551687 117.24874,221.756076 L100.526852,205.034581 L65.5388524,169.233312 L102.017852,132.754581 L154.03628,184.773732 C162.524193,193.261645 176.285819,193.261645 184.773732,184.773732 C193.168371,176.379093 193.26062,162.82601 185.050479,154.317998 L184.773732,154.03628 L132.754852,102.017581 L169.639852,65.132581 Z" id="形状结合" opacity="0.900000036"></path>
        </g>
    </g>
</svg>