<?xml version="1.0" encoding="UTF-8"?>
<svg width="240px" height="480px" viewBox="0 0 240 480" version="1.1" xmlns="http://www.w3.org/2000/svg" xmlns:xlink="http://www.w3.org/1999/xlink">
    <title>com.vivo.easyshare_b_s5_1x2_mc</title>
    <g id="com.vivo.easyshare" stroke="none" stroke-width="1" fill="none" fill-rule="evenodd">
        <g id="编组-37备份" transform="translate(51.000000, 190.000000)" fill="#579CF8" fill-rule="nonzero">
            <path d="M50,0 C77.6142375,0 100,22.3857625 100,50 C100,77.6142375 77.6142375,100 50,100 C22.3857625,100 0,77.6142375 0,50 C0,22.3857625 22.3857625,0 50,0 Z M50,18 C32.326888,18 18,32.326888 18,50 C18,67.673112 32.326888,82 50,82 C67.673112,82 82,67.673112 82,50 C82,32.326888 67.673112,18 50,18 Z" id="椭圆形"></path>
        </g>
    </g>
</svg>