<?xml version="1.0" encoding="UTF-8"?>
<svg width="240px" height="480px" viewBox="0 0 240 480" version="1.1" xmlns="http://www.w3.org/2000/svg" xmlns:xlink="http://www.w3.org/1999/xlink">
    <title>com.vivo.vivoconsole_b_s5_1x2_mc</title>
    <defs>
        <polygon id="path-1" points="0 0 65 37.5 65 112.5 -1.8189894e-12 75"></polygon>
    </defs>
    <g id="com.vivo.vivoconsole" stroke="none" stroke-width="1" fill="none" fill-rule="evenodd">
        <g id="均衡备份-7" transform="translate(55.000000, 202.500000)">
            <g id="编组-4" opacity="0.8">
                <mask id="mask-2" fill="white">
                    <use xlink:href="#path-1"></use>
                </mask>
                <g id="路径-7"></g>
                <path d="M65,-23.646156 L118,6.9307671 L118,68.0692329 L65,98.646156 L12,68.0692329 L12,6.9307671 L65,-23.646156 Z M64.4107143,-2.57142857 L29.6428571,17.4738284 L29.6428571,57.5261716 L65,77.86539 L99.1785714,57.5261716 L99.1785714,17.4738284 L64.4107143,-2.57142857 Z" id="形状结合" fill-opacity="0.7" fill="#00B1F1" fill-rule="nonzero" mask="url(#mask-2)"></path>
                <polygon id="路径" fill-opacity="0.8" fill="#0075CF" fill-rule="nonzero" mask="url(#mask-2)" points="29.6428571 17.4738284 29.6428571 57.5261716 65 77.86539 99.1785714 57.5261716 99.1785714 17.4738284 64.4107143 -2.57142857"></polygon>
            </g>
            <path d="M100,57.6730823 L100,17.726969 L118,7.55796902 L118,68.0692329 L65,98.646156 L65,77.86539 L100,57.6730823 Z" id="形状结合" fill="#46BFEB" fill-rule="nonzero" opacity="0.7"></path>
            <path d="M100,17.7852245 L100,57.6730823 L65,77.86539 L65,37.6469807 L100,17.7852245 Z" id="形状结合" fill="#00B3F4" fill-rule="nonzero" opacity="0.8"></path>
        </g>
    </g>
</svg>