<?xml version="1.0" encoding="UTF-8"?>
<svg width="480px" height="240px" viewBox="0 0 480 240" version="1.1" xmlns="http://www.w3.org/2000/svg" xmlns:xlink="http://www.w3.org/1999/xlink">
    <title>com.bbk.calendar_b_s5_2x1_mc</title>
    <g id="com.bbk.calendar" stroke="none" stroke-width="1" fill="none" fill-rule="evenodd">
        <g id="编组-12备份" transform="translate(175.000000, 41.035714)">
            <g id="编组-3" transform="translate(3.607143, 0.000000)">
                <g id="编组-7" transform="translate(20.625000, 0.000000)"></g>
                <path d="M39.8128571,16.0282857 L39.8128571,7.77228571 L23.7088571,7.77228571 L23.7088571,16.0282857 L39.8128571,16.0282857 Z M37.7968571,11.1082857 L25.7248571,11.1082857 L25.7248571,9.40428571 L37.7968571,9.40428571 L37.7968571,11.1082857 Z M37.7968571,14.3962857 L25.7248571,14.3962857 L25.7248571,12.7162857 L37.7968571,12.7162857 L37.7968571,14.3962857 Z M42.0208571,27.3802857 L42.0208571,25.7242857 L33.0448571,25.7242857 L33.0448571,23.5162857 L40.3888571,23.5162857 L40.3888571,21.8602857 L33.0448571,21.8602857 L33.0448571,19.9402857 L41.2528571,19.9402857 L41.2528571,18.2362857 L33.0448571,18.2362857 L33.0448571,16.5802857 L30.9568571,16.5802857 L30.9568571,18.2362857 L26.3798571,18.2362857 L26.5541905,17.9522857 C26.661746,17.7722857 26.7664127,17.5919524 26.8681905,17.4112857 L27.1648571,16.8682857 L25.3168571,16.0522857 C24.8048571,17.0602857 24.1928571,18.0602857 23.4808571,19.0522857 C22.7688571,20.0442857 21.9968571,20.9722857 21.1648571,21.8362857 L21.1648571,21.8362857 L22.5808571,23.1082857 C23.4928571,22.1642857 24.3408571,21.1602857 25.1248571,20.0962857 L25.1248571,20.0962857 L25.2368571,19.9402857 L30.9568571,19.9402857 L30.9568571,21.8602857 L24.3328571,21.8602857 L24.3328571,23.5162857 L30.9568571,23.5162857 L30.9568571,25.7242857 L21.4768571,25.7242857 L21.4768571,27.3802857 L42.0208571,27.3802857 Z M56.9968571,22.4122857 L56.9968571,20.7082857 L55.0528571,20.7082857 L55.0528571,11.0602857 L56.9488571,11.0602857 L56.9488571,9.35628571 L55.0528571,9.35628571 L55.0528571,7.05228571 L53.2528571,7.05228571 L53.2528571,9.35628571 L49.0528571,9.35628571 L49.0528571,7.05228571 L47.2528571,7.05228571 L47.2528571,9.35628571 L45.5008571,9.35628571 L45.5008571,11.0602857 L47.2528571,11.0602857 L47.2528571,20.7082857 L44.9008571,20.7082857 L44.9008571,22.4122857 L56.9968571,22.4122857 Z M56.5648571,28.5322857 C57.4768571,27.3322857 58.1448571,26.2642857 58.5688571,25.3282857 C58.9928571,24.3922857 59.2768571,23.3202857 59.4208571,22.1122857 C59.4496571,21.8706857 59.4758971,21.6090857 59.4995771,21.3274857 L59.5028571,21.2842857 L63.7888571,21.2842857 L63.7888571,24.6442857 C63.7888571,25.1278413 63.7098448,25.4691746 63.5518201,25.6682857 L63.4888571,25.7362857 C63.2888571,25.9202857 62.8848571,26.0122857 62.2768571,26.0122857 L62.2768571,26.0122857 L60.1408571,26.0122857 L60.5728571,27.9082857 L62.6368571,27.9082857 C63.4048571,27.9082857 64.0008571,27.8242857 64.4248571,27.6562857 C64.8488571,27.4882857 65.1448571,27.2042857 65.3128571,26.8042857 C65.4808571,26.4042857 65.5648571,25.8362857 65.5648571,25.1002857 L65.5648571,25.1002857 L65.5648571,8.18028571 L57.8608571,8.18028571 L57.8608571,16.0282857 C57.8608571,18.3802857 57.8008571,20.1322857 57.6808571,21.2842857 C57.5608571,22.4362857 57.2888571,23.4482857 56.8648571,24.3202857 C56.4408571,25.1922857 55.7408571,26.1962857 54.7648571,27.3322857 L54.7648571,27.3322857 L56.5648571,28.5322857 Z M63.7888571,13.8922857 L59.6608571,13.8922857 L59.6608571,10.1002857 L63.7888571,10.1002857 L63.7888571,13.8922857 Z M53.2528571,13.1482857 L49.0528571,13.1482857 L49.0528571,11.0602857 L53.2528571,11.0602857 L53.2528571,13.1482857 Z M53.2528571,16.9402857 L49.0528571,16.9402857 L49.0528571,14.8282857 L53.2528571,14.8282857 L53.2528571,16.9402857 Z M63.7888571,19.4602857 L59.6078571,19.4602857 L59.6109371,19.3978857 C59.6333371,18.795219 59.648626,18.1369968 59.6568038,17.423219 L59.6608571,16.9882857 L59.6608571,15.6932857 L63.7888571,15.6932857 L63.7888571,19.4602857 Z M53.2528571,20.7082857 L49.0528571,20.7082857 L49.0528571,18.5722857 L53.2528571,18.5722857 L53.2528571,20.7082857 Z M54.5008571,26.7082857 L55.7488571,25.3882857 C55.0448571,24.7002857 54.4688571,24.1562857 54.0208571,23.7562857 L54.0208571,23.7562857 L52.7728571,22.6042857 L51.5008571,23.8522857 C51.8688571,24.1562857 52.2448571,24.4962857 52.6288571,24.8722857 C53.0128571,25.2482857 53.4048571,25.6362857 53.8048571,26.0362857 C53.9328571,26.1482857 54.0528571,26.2602857 54.1648571,26.3722857 C54.2768571,26.4842857 54.3888571,26.5962857 54.5008571,26.7082857 L54.5008571,26.7082857 Z M46.3408571,28.2442857 C47.0128571,27.6842857 47.7288571,27.0002857 48.4888571,26.1922857 C49.2488571,25.3842857 49.9328571,24.5802857 50.5408571,23.7802857 L50.5408571,23.7802857 L49.0528571,22.6282857 C48.4928571,23.3802857 47.8448571,24.1362857 47.1088571,24.8962857 C46.3728571,25.6562857 45.6608571,26.3082857 44.9728571,26.8522857 L44.9728571,26.8522857 L46.3408571,28.2442857 Z M90.5728571,14.0842857 L90.5728571,12.0442857 L80.3858571,12.0442857 L81.9568571,11.4682857 C81.7435238,10.9847302 81.4385362,10.3273474 81.0418942,9.49613757 L80.8888571,9.17628571 C80.4168571,8.19228571 80.0048571,7.35628571 79.6528571,6.66828571 L79.6528571,6.66828571 L77.5888571,7.43628571 C77.9568571,8.14028571 78.3648571,8.97628571 78.8128571,9.94428571 C79.1613016,10.6971746 79.4371534,11.3314956 79.6404127,11.8472487 L79.7158571,12.0442857 L69.2128571,12.0442857 L69.2128571,14.0842857 L90.5728571,14.0842857 Z M88.3888571,28.1002857 L90.4048571,26.9482857 L89.3728571,25.1722857 C87.1168571,21.3962857 85.2688571,18.4362857 83.8288571,16.2922857 L83.8288571,16.2922857 L81.9568571,17.3962857 C82.9808571,18.9802857 84.1368571,20.8362857 85.4248571,22.9642857 C86.7128571,25.0922857 87.7008571,26.8042857 88.3888571,28.1002857 L88.3888571,28.1002857 Z M71.3008571,28.2202857 C72.4848571,26.7802857 73.6528571,25.0922857 74.8048571,23.1562857 C75.9568571,21.2202857 76.9728571,19.2522857 77.8528571,17.2522857 L77.8528571,17.2522857 L75.7168571,16.4602857 C74.9648571,18.3322857 74.0368571,20.2002857 72.9328571,22.0642857 C71.8288571,23.9282857 70.6688571,25.5482857 69.4528571,26.9242857 L69.4528571,26.9242857 L71.3008571,28.2202857 Z" id="星期六" fill="#000000" fill-rule="nonzero"></path>
            </g>
            <path d="M42.644,118.964286 C42.9973333,118.964286 43.2976667,118.840619 43.545,118.593286 C43.7923333,118.345952 43.916,118.045619 43.916,117.692286 L43.916,117.692286 L43.916,46.0362857 C43.916,45.6829524 43.7923333,45.382619 43.545,45.1352857 C43.2976667,44.8879524 42.9973333,44.7642857 42.644,44.7642857 L42.644,44.7642857 L29.818,44.7642857 C29.3233333,44.7642857 28.7933333,44.8702857 28.228,45.0822857 L28.228,45.0822857 L19.536,48.5802857 C18.9,48.8629524 18.582,49.357619 18.582,50.0642857 L18.582,50.0642857 L18.9,59.1802857 C18.9,59.957619 19.2886667,60.3462857 20.066,60.3462857 L20.066,60.3462857 L20.278,60.3462857 L28.44,59.3922857 C28.7933333,59.3922857 28.97,59.533619 28.97,59.8162857 L28.97,59.8162857 L28.97,117.692286 C28.97,118.045619 29.0936667,118.345952 29.341,118.593286 C29.5883333,118.840619 29.8886667,118.964286 30.242,118.964286 L30.242,118.964286 L42.644,118.964286 Z M74.052,119.812286 C78.3626667,119.812286 82.1433333,118.699286 85.394,116.473286 C88.6446667,114.247286 91.012,111.190952 92.496,107.304286 C93.6266667,104.053619 94.192,100.802952 94.192,97.5522857 C94.192,93.453619 93.4853333,89.8849524 92.072,86.8462857 C90.9413333,84.1609524 89.21,82.0762857 86.878,80.5922857 C86.5246667,80.3802857 86.4893333,80.1329524 86.772,79.8502857 C89.316,78.2249524 91.118,76.1402857 92.178,73.5962857 C93.5206667,70.557619 94.192,67.3069524 94.192,63.8442857 C94.192,60.169619 93.4853333,56.8482857 92.072,53.8802857 C90.5173333,50.4882857 88.15,47.8912857 84.97,46.0892857 C81.79,44.2872857 78.1506667,43.3862857 74.052,43.3862857 C69.8826667,43.3862857 66.1903333,44.322619 62.975,46.1952857 C59.7596667,48.0679524 57.41,50.6649524 55.926,53.9862857 C54.5833333,56.7422857 53.912,60.0282857 53.912,63.8442857 C53.912,67.3069524 54.5833333,70.5929524 55.926,73.7022857 C56.986,76.2462857 58.7526667,78.3662857 61.226,80.0622857 C61.65,80.2742857 61.65,80.4862857 61.226,80.6982857 C58.6113333,82.323619 56.8093333,84.4789524 55.82,87.1642857 C54.548,90.1322857 53.912,93.5949524 53.912,97.5522857 C53.912,101.156286 54.4773333,104.406952 55.608,107.304286 C57.092,111.261619 59.4593333,114.335619 62.71,116.526286 C65.9606667,118.716952 69.7413333,119.812286 74.052,119.812286 Z M74.052,74.7622857 C72.8506667,74.7622857 71.8436667,74.3382857 71.031,73.4902857 C70.2183333,72.6422857 69.6706667,71.511619 69.388,70.0982857 C68.8933333,68.4729524 68.646,66.847619 68.646,65.2222857 C68.646,63.5969524 68.858,62.1482857 69.282,60.8762857 C69.6353333,59.3922857 70.2183333,58.2439524 71.031,57.4312857 C71.8436667,56.618619 72.8506667,56.2122857 74.052,56.2122857 C75.1826667,56.2122857 76.1543333,56.618619 76.967,57.4312857 C77.7796667,58.2439524 78.3626667,59.321619 78.716,60.6642857 C79.2106667,61.9362857 79.458,63.4909524 79.458,65.3282857 C79.458,67.0242857 79.246,68.5789524 78.822,69.9922857 C78.5393333,71.405619 77.974,72.5539524 77.126,73.4372857 C76.278,74.320619 75.2533333,74.7622857 74.052,74.7622857 Z M74.052,106.986286 C72.7093333,106.986286 71.614,106.491619 70.766,105.502286 C69.918,104.512952 69.3526667,103.170286 69.07,101.474286 C68.7873333,100.060952 68.646,98.3649524 68.646,96.3862857 C68.646,94.619619 68.8226667,92.923619 69.176,91.2982857 C69.4586667,89.6729524 70.024,88.4009524 70.872,87.4822857 C71.72,86.563619 72.78,86.1042857 74.052,86.1042857 C75.2533333,86.1042857 76.2603333,86.5459524 77.073,87.4292857 C77.8856667,88.312619 78.4686667,89.531619 78.822,91.0862857 C79.246,92.6409524 79.458,94.4782857 79.458,96.5982857 C79.458,97.8702857 79.3166667,99.4249524 79.034,101.262286 C78.822,103.028952 78.2743333,104.424619 77.391,105.449286 C76.5076667,106.473952 75.3946667,106.986286 74.052,106.986286 Z" id="18" fill="#000000" fill-rule="nonzero"></path>
        </g>
    </g>
</svg>