<?xml version="1.0" encoding="UTF-8"?>
<svg width="240px" height="240px" viewBox="0 0 240 240" version="1.1" xmlns="http://www.w3.org/2000/svg" xmlns:xlink="http://www.w3.org/1999/xlink">
    <title>com.vivo.email_b_s5_1x1_sc</title>
    <defs>
        <filter color-interpolation-filters="auto" id="filter-1">
            <feColorMatrix in="SourceGraphic" type="matrix" values="0 0 0 0 1.000000 0 0 0 0 1.000000 0 0 0 0 1.000000 0 0 0 1.000000 0"></feColorMatrix>
        </filter>
        <path d="M118.497525,3.62648818e-15 C123.846638,-2.10709407e-15 125.786355,0.556953667 127.741911,1.60279622 C128.496461,2.00633399 129.188358,2.48265744 129.813694,3.02785657 L77.6251684,53.2832357 C70.3447023,60.294055 58.8770426,60.3816902 51.4918966,53.5461415 L51.2134273,53.2832357 L-1.7646995e-13,3.9637563 C0.849273858,3.01444213 1.86058661,2.22273005 3.01976208,1.60279622 C4.97531763,0.556953667 6.91503506,3.61111829e-16 12.2641475,-6.21504185e-16 L118.497525,3.62648818e-15 Z" id="path-2"></path>
    </defs>
    <g id="com.vivo.email" stroke="none" stroke-width="1" fill="none" fill-rule="evenodd">
        <g filter="url(#filter-1)" id="编组">
            <g transform="translate(55.119164, 67.000000)">
                <mask id="mask-3" fill="white">
                    <use xlink:href="#path-2"></use>
                </mask>
                <use id="形状结合" fill-opacity="0.6" fill="#FFFFFF" xlink:href="#path-2"></use>
            </g>
        </g>
    </g>
</svg>