<?xml version="1.0" encoding="UTF-8"?>
<svg width="240px" height="480px" viewBox="0 0 240 480" version="1.1" xmlns="http://www.w3.org/2000/svg" xmlns:xlink="http://www.w3.org/1999/xlink">
    <title>com.bbk.calendar_b_s5_1x2_mc</title>
    <g id="com.bbk.calendar" stroke="none" stroke-width="1" fill="none" fill-rule="evenodd">
        <g id="编组-12备份" transform="translate(64.607143, 161.000000)">
            <g id="编组-3">
                <g id="编组-7" transform="translate(20.625000, 0.035714)"></g>
                <text id="星期六" font-family="HanyiVar-vivo_60, HanyiVar-vivo" font-size="24" font-style="expanded" font-weight="500" fill="#000000">
                    <tspan x="20" y="22">星期六</tspan>
                </text>
            </g>
            <text id="18" font-family="BarlowCondensed-Bold, Barlow Condensed" font-size="106" font-style="condensed" font-weight="bold" letter-spacing="3" fill="#000000">
                <tspan x="14.5208571" y="119">18</tspan>
            </text>
        </g>
    </g>
</svg>