<?xml version="1.0" encoding="UTF-8"?>
<svg width="480px" height="240px" viewBox="0 0 480 240" version="1.1" xmlns="http://www.w3.org/2000/svg" xmlns:xlink="http://www.w3.org/1999/xlink">
    <title>com.vivo.upslide_b_s5_2x1_mc</title>
    <defs>
        <filter color-interpolation-filters="auto" id="filter-1">
            <feColorMatrix in="SourceGraphic" type="matrix" values="0 0 0 0 0.000000 0 0 0 0 0.941176 0 0 0 0 0.321569 0 0 0 1.000000 0"></feColorMatrix>
        </filter>
    </defs>
    <g id="com.vivo.upslide" stroke="none" stroke-width="1" fill="none" fill-rule="evenodd">
        <g filter="url(#filter-1)" id="编组-2">
            <g transform="translate(145.486277, 29.405419)" id="编组">
                <path d="M88.671415,19.8662323 C92.0486468,17.9163866 96.2095679,17.9163866 99.5867996,19.8662323 L99.5867996,19.8662323 L153.185747,50.8115988 C156.562978,52.7614444 158.643439,56.3649078 158.643439,60.2645991 L158.643439,60.2645991 L158.643439,122.155332 C158.643439,126.055023 156.562978,129.658487 153.185747,131.608332 L153.185747,131.608332 L99.5867996,162.553699 C96.2095679,164.503545 92.0486468,164.503545 88.671415,162.553699 L88.671415,162.553699 L35.072468,131.608332 C31.6952362,129.658487 29.6147757,126.055023 29.6147757,122.155332 L29.6147757,122.155332 L29.6147757,60.2645991 C29.6147757,56.3649078 31.6952362,52.7614444 35.072468,50.8115988 L35.072468,50.8115988 Z M156.114202,56.0351424 L95.0739951,91.3329512 L94.8372567,162.466303 C96.2195562,162.3619 97.5839311,161.951358 98.8252612,161.234676 L98.8252612,161.234676 L152.424208,130.289309 C155.330198,128.611535 157.120362,125.51088 157.120362,122.155332 L157.120362,122.155332 L157.120362,60.2645991 C157.120362,58.7697778 156.765104,57.3255403 156.114202,56.0351424 Z M32.0234249,56.2831879 C31.4493596,57.5094499 31.1378526,58.8648475 31.1378526,60.2645991 L31.1378526,60.2645991 L31.1378526,122.155332 C31.1378526,125.51088 32.9280163,128.611535 35.8340065,130.289309 L35.8340065,130.289309 L89.4329535,161.234676 C90.6342238,161.928229 91.9507255,162.335084 93.2871905,162.455239 L93.523789,91.3339869 Z M98.8252612,21.1852556 C95.9192711,19.5074814 92.3389436,19.5074814 89.4329535,21.1852556 L89.4329535,21.1852556 L35.8340065,52.1306221 C34.6040853,52.8407174 33.5740412,53.805692 32.7949984,54.9369963 L94.2970569,89.9906475 L155.303642,54.7123865 C154.545574,53.6778236 153.571915,52.7932511 152.424208,52.1306221 L152.424208,52.1306221 Z" id="形状结合" fill="#FFFFFF" fill-rule="nonzero"></path>
                <g id="结构" transform="translate(93.725369, 90.515714) rotate(-60.000000) translate(-93.725369, -90.515714) translate(30.672924, 18.694326)">
                    <g id="面" transform="translate(0.000000, -0.000000)" fill="#FFFFFF" opacity="0.0425920759">
                        <path d="M63.1914892,72.8759203 L125.474878,109.005227 L67.8370906,142.282419 C64.7089052,144.088477 60.8567571,144.096711 57.72088,142.30404 L0.0454546533,109.333035 L63.1914892,72.8759203 Z M62.4915882,0.194672107 L62.6530751,72.7206531 L0.00680463035,108.292158 L3.84766004e-13,41.7496239 C-0.00032933949,38.5290104 1.71219071,35.5512514 4.49604168,33.9318302 L62.4915882,0.194672107 Z M63.3396919,-9.09494702e-13 L120.613437,33.2464793 C123.722027,35.0509653 125.644971,38.3644501 125.6695,41.9587371 L125.6695,41.9587371 L126.104862,105.754367 C126.106429,105.98397 126.046775,106.209843 125.932042,106.40873 C125.575516,107.026762 124.785481,107.238755 124.167449,106.882229 L124.167449,106.882229 L63.9895935,72.1672762 C63.8724697,72.0997107 63.7999631,71.9750992 63.7990985,71.8398871 L63.7990985,71.8398871 L63.3396919,-9.09494702e-13 Z" id="形状结合"></path>
                    </g>
                    <g id="结构线" transform="translate(0.410010, 1.246951)"></g>
                </g>
            </g>
        </g>
    </g>
</svg>