<?xml version="1.0" encoding="UTF-8"?>
<svg width="480px" height="240px" viewBox="0 0 480 240" version="1.1" xmlns="http://www.w3.org/2000/svg" xmlns:xlink="http://www.w3.org/1999/xlink">
    <title>com.android.contacts_b_s5_2x1_sc</title>
    <g id="com.android.contacts" stroke="none" stroke-width="1" fill="none" fill-rule="evenodd">
        <g id="linkman" transform="translate(185.423077, 130.000000)" fill="#FFFFFF">
            <path d="M5.28226632,41 L5.26077576,40.9994641 C3.08214594,40.964141 1.32692308,39.1870476 1.32692308,37 C1.32692308,36.6508077 1.37166814,36.3120661 1.45573748,35.9891961 L1.46771356,35.9323 C6.94421471,15.3625286 28.6427422,0 54.5775684,0 C80.5029086,0 102.195772,15.3526969 107.680894,35.9125522 C107.685655,35.9303953 107.68988,35.9486166 107.693579,35.9672033 C107.780209,36.2973279 107.826923,36.6432087 107.826923,37 C107.826923,39.209139 106.036062,41 103.826923,41 L103.840923,41 L5.28226632,41 L5.28226632,41 Z" id="形状结合"></path>
        </g>
    </g>
</svg>