<?xml version="1.0" encoding="UTF-8"?>
<svg width="480px" height="480px" viewBox="0 0 480 480" version="1.1" xmlns="http://www.w3.org/2000/svg" xmlns:xlink="http://www.w3.org/1999/xlink">
    <title>com.android.camera_b_s5_2x2_sc</title>
    <g id="com.android.camera" stroke="none" stroke-width="1" fill="none" fill-rule="evenodd">
        <g id="编组-2" transform="translate(110.000000, 110.000000)">
            <path d="M130,0 C201.797017,0 260,58.2029825 260,130 C260,201.797017 201.797017,260 130,260 C58.2029825,260 0,201.797017 0,130 C0,58.2029825 58.2029825,0 130,0 Z M130,27.3684211 C73.3181441,27.3684211 27.3684211,73.3181441 27.3684211,130 C27.3684211,186.681856 73.3181441,232.631579 130,232.631579 C186.681856,232.631579 232.631579,186.681856 232.631579,130 C232.631579,73.3181441 186.681856,27.3684211 130,27.3684211 Z M130,54.0526316 C171.944573,54.0526316 205.947368,88.0554266 205.947368,130 C205.947368,171.944573 171.944573,205.947368 130,205.947368 C88.0554266,205.947368 54.0526316,171.944573 54.0526316,130 C54.0526316,88.0554266 88.0554266,54.0526316 130,54.0526316 Z" id="形状结合" fill="#77B6A1" opacity="0.25"></path>
            <path d="M105.301834,41.9012525 C106.124071,41.6498694 106.860742,41.6437533 107.511845,41.882904 C108.162949,42.1220547 108.706503,42.5716385 109.142508,43.2316553 L109.142508,43.2316553 L108.178625,43.5263438 L108.0422,43.3708751 C107.720008,43.0252041 107.370759,42.7991591 106.994453,42.6927398 C106.564389,42.5711178 106.086793,42.5905804 105.561667,42.7511276 C105.036541,42.9116747 104.625687,43.1865047 104.329103,43.5756175 C104.03252,43.9647303 103.85692,44.428297 103.802303,44.9663176 C103.747686,45.5043382 103.814382,46.0808236 104.002391,46.6957739 C104.192513,47.3176337 104.46117,47.8380399 104.808363,48.2569925 C105.155556,48.675945 105.560359,48.9620649 106.02277,49.115352 C106.485182,49.2686392 106.97895,49.2650092 107.504077,49.104462 C108.029203,48.9439149 108.439628,48.6862157 108.735353,48.3313646 C109.031078,47.9765135 109.192716,47.522882 109.220267,46.9704701 L109.220267,46.9704701 L110.194514,46.6726129 L110.186543,46.9376 C110.145792,47.6317237 109.949083,48.2257784 109.596417,48.7197642 C109.199667,49.2754982 108.586718,49.6801129 107.757572,49.9336084 C106.990612,50.1680918 106.293627,50.1866298 105.666619,49.9892225 C105.039611,49.7918152 104.507587,49.429371 104.070548,48.9018899 C103.633508,48.3744089 103.29986,47.7340977 103.069601,46.9809563 C102.841455,46.2347246 102.763988,45.5179796 102.8372,44.8307216 C102.910411,44.1434635 103.151201,43.5409688 103.55957,43.0232373 C103.967938,42.5055058 104.548693,42.1315109 105.301834,41.9012525 Z M153.680286,40.9432542 L154.701255,41.2360124 L155.53569,49.8072536 L154.535557,49.52047 L154.321315,47.1815565 L150.801749,46.1723373 L149.368203,48.038755 L148.388906,47.7579461 L153.680286,40.9432542 Z M114.938326,39.6693778 L119.573076,46.9275838 L118.551754,47.1261087 L117.300634,45.1390715 L113.706502,45.8376999 L113.274923,48.1518207 L112.274878,48.3462097 L113.895726,39.8720387 L114.938326,39.6693778 Z M142.145611,38.7042681 L145.185678,39.1857674 L145.439327,39.2335615 C145.850696,39.3241164 146.205173,39.4691616 146.50276,39.6686973 C146.859863,39.9081402 147.117114,40.2122365 147.274512,40.5809862 C147.43191,40.949736 147.475005,41.3589045 147.403797,41.808492 C147.329199,42.2794883 147.158947,42.6731544 146.893042,42.9894902 C146.665124,43.2606352 146.382321,43.4626239 146.044633,43.5954564 L145.871215,43.6561095 L145.615689,43.7203205 L145.374706,43.7548668 L146.758741,47.543956 L145.656181,47.3693277 L144.375944,43.710066 L142.37945,43.3938525 L141.845393,46.7657581 L140.892695,46.6148657 L142.145611,38.7042681 Z M129.380507,38.0605608 L129.939201,46.0502549 L128.976978,46.1175401 L128.516338,39.6854571 L128.505527,39.6862131 L126.263293,46.3072995 L125.311881,46.3738287 L122.115934,40.133017 L122.094311,40.134529 L122.544139,46.5673681 L121.581916,46.6346532 L121.023222,38.6449591 L122.38547,38.5497014 L125.687566,45.0655638 L125.709189,45.0640517 L128.007447,38.1565744 L129.380507,38.0605608 Z M133.183444,37.9817417 L138.584142,38.2647803 L138.538197,39.1414467 L134.10075,38.90889 L133.964052,41.517243 L137.968578,41.7271113 L137.922634,42.6037777 L133.918108,42.3939094 L133.772902,45.1646081 L138.28611,45.4011353 L138.240734,46.2669787 L132.764274,45.9799696 L133.183444,37.9817417 Z M153.860708,42.2013776 L151.378837,45.4245674 L154.236856,46.2440912 L153.871126,42.204365 L153.860708,42.2013776 Z M114.638299,40.9090568 L114.62766,40.9111248 L113.88121,44.9094397 L116.79978,44.3421272 L114.638299,40.9090568 Z M142.960979,39.7222219 L142.518474,42.5160866 L144.488095,42.8280439 C145.030455,42.9139452 145.473626,42.8524607 145.817609,42.6435905 C146.161593,42.4347204 146.369188,42.1054916 146.440396,41.6559041 C146.505952,41.2419983 146.408082,40.8899922 146.146787,40.599886 C145.885491,40.3097797 145.480096,40.1212108 144.9306,40.0341792 L142.960979,39.7222219 Z" id="形状结合" fill="#FFFFFF" fill-rule="nonzero" transform="translate(129.173106, 44.053155) rotate(1.000000) translate(-129.173106, -44.053155) "></path>
            <circle id="椭圆形" stroke="#979797" stroke-width="33.015873" cx="130" cy="130" r="33.015873"></circle>
            <circle id="椭圆形" stroke="#77B6A1" stroke-width="33.015873" cx="130" cy="130" r="33.0973266"></circle>
        </g>
    </g>
</svg>