<?xml version="1.0" encoding="UTF-8"?>
<svg width="240px" height="240px" viewBox="0 0 240 240" version="1.1" xmlns="http://www.w3.org/2000/svg" xmlns:xlink="http://www.w3.org/1999/xlink">
    <title>com.vivo.wallet_b_s5_1x1_sc</title>
    <g id="com.vivo.wallet" stroke="none" stroke-width="1" fill="none" fill-rule="evenodd">
        <path d="M184.746118,168.421771 C190.352193,168.421771 190.850801,172.983598 190.850801,174.377381 L190.850278,174.456507 C190.830981,175.935659 190.250264,180.33311 184.746118,180.33311 L184.746118,180.33311 L179.351936,180.33311 C173.74598,180.33311 173.247372,175.771283 173.247372,174.377381 L173.247894,174.298261 C173.267192,172.819222 173.847907,168.421771 179.351936,168.421771 L179.351936,168.421771 Z M156.374952,168.701028 C157.123761,168.701028 157.277833,168.828331 157.566822,169.254941 C157.855572,169.68167 162.856494,177.283405 162.856494,177.283405 C163.016072,177.517152 163.185228,177.611676 163.395685,177.611676 C163.606261,177.611676 163.775417,177.517152 163.934995,177.283405 C163.934995,177.283405 163.937259,177.279964 163.941693,177.273224 L163.993593,177.194334 C164.554197,176.342204 168.954221,169.654432 169.224428,169.254941 C169.513417,168.828331 169.667728,168.701028 170.416537,168.701028 L170.416537,168.701028 L172.164837,168.701028 C172.567314,168.701028 172.751314,169.01428 172.498359,169.396787 C172.379378,169.57679 171.049745,171.58712 169.675246,173.665255 L169.159983,174.444291 C167.792483,176.511837 166.52584,178.426872 166.52584,178.426872 C165.598897,179.784299 164.918563,180.333087 163.395685,180.333087 C161.872806,180.333087 161.192592,179.784299 160.265769,178.426872 C160.265769,178.426872 158.891344,176.348926 157.460175,174.185181 L157.11628,173.665255 C155.741737,171.58712 154.412048,169.57679 154.29301,169.396787 C154.040055,169.01428 154.224175,168.701028 154.626533,168.701028 L154.626533,168.701028 Z M151.005946,168.701087 C151.536278,168.701087 151.746615,168.910399 151.746615,169.438685 L151.746615,179.59543 C151.746615,180.123715 151.536278,180.333027 151.005946,180.333027 L149.684426,180.333027 C149.153974,180.333027 148.943637,180.123715 148.943637,179.59543 L148.943637,169.438685 C148.943637,168.910399 149.153974,168.701087 149.684426,168.701087 L151.005946,168.701087 Z M130.273715,168.701028 C131.022524,168.701028 131.176955,168.828331 131.465704,169.254941 C131.736023,169.654432 136.136159,176.342204 136.696777,177.194334 L136.748678,177.273224 L136.748678,177.273224 L136.755376,177.283405 C136.914955,177.517152 137.083991,177.611676 137.294567,177.611676 C137.505144,177.611676 137.674299,177.517152 137.833758,177.283405 C137.833758,177.283405 137.836022,177.279964 137.840456,177.273224 L137.892358,177.194334 C138.45299,176.342204 142.853231,169.654432 143.123549,169.254941 C143.412419,168.828331 143.56661,168.701028 144.315539,168.701028 L144.315539,168.701028 L146.063839,168.701028 C146.513125,168.701028 146.650197,169.01428 146.397361,169.396787 C146.278324,169.57679 144.948661,171.58712 143.574146,173.665255 L143.058878,174.444291 C141.691365,176.511837 140.424723,178.426872 140.424723,178.426872 C139.497779,179.784299 138.817446,180.333087 137.294567,180.333087 C135.771688,180.333087 135.091355,179.784299 134.164531,178.426872 C134.164531,178.426872 128.444848,169.779293 128.191893,169.396787 C127.938818,169.01428 128.07601,168.701028 128.525415,168.701028 L128.525415,168.701028 Z M184.746118,171.14473 L179.351936,171.14473 C176.319586,171.14473 176.049991,173.620831 176.049991,174.377381 C176.049991,175.133931 176.319586,177.610032 179.351936,177.610032 L179.351936,177.610032 L184.746118,177.610032 C187.778467,177.610032 188.048182,175.133931 188.048182,174.377381 C188.048182,173.620831 187.778467,171.14473 184.746118,171.14473 L184.746118,171.14473 Z M150.94646,164.215833 L151.867059,165.132465 C152.297549,165.56134 152.297549,165.901293 151.867059,166.330048 L150.94646,167.246562 C150.515969,167.675436 150.174426,167.675436 149.743576,167.246562 L148.823217,166.330048 C148.392487,165.901293 148.392487,165.56134 148.823217,165.132465 L149.743576,164.215952 C150.174426,163.787077 150.515969,163.787077 150.94646,164.215833 Z" id="形状结合备份" fill="#8E8E8E"></path>
    </g>
</svg>