<?xml version="1.0" encoding="UTF-8"?>
<svg width="240px" height="480px" viewBox="0 0 240 480" version="1.1" xmlns="http://www.w3.org/2000/svg" xmlns:xlink="http://www.w3.org/1999/xlink">
    <title>com.vivo.upslide_b_s5_1x2_mc</title>
    <defs>
        <filter color-interpolation-filters="auto" id="filter-1">
            <feColorMatrix in="SourceGraphic" type="matrix" values="0 0 0 0 0.000000 0 0 0 0 0.937255 0 0 0 0 0.317647 0 0 0 1.000000 0"></feColorMatrix>
        </filter>
    </defs>
    <g id="com.vivo.upslide" stroke="none" stroke-width="1" fill="none" fill-rule="evenodd">
        <g filter="url(#filter-1)" id="编组">
            <g transform="translate(25.654602, 149.392122)">
                <path d="M88.50309,19.8795296 C91.8803218,17.929684 96.0412429,17.929684 99.4184746,19.8795296 L99.4184746,19.8795296 L153.017422,50.8248961 C156.394653,52.7747418 158.475114,56.3782052 158.475114,60.2778965 L158.475114,60.2778965 L158.475114,122.16863 C158.475114,126.068321 156.394653,129.671784 153.017422,131.62163 L153.017422,131.62163 L99.4184746,162.566996 C96.0412429,164.516842 91.8803218,164.516842 88.50309,162.566996 L88.50309,162.566996 L34.904143,131.62163 C31.5269112,129.671784 29.4464507,126.068321 29.4464507,122.16863 L29.4464507,122.16863 L29.4464507,60.2778965 C29.4464507,56.3782052 31.5269112,52.7747418 34.904143,50.8248961 L34.904143,50.8248961 Z M155.945877,56.0484398 L94.9064507,91.3451454 L94.6689317,162.4796 C95.9468439,162.383082 97.2094367,162.024915 98.3736515,161.405101 L98.6569362,161.247973 L152.255883,130.302607 C155.161873,128.624832 156.952037,125.524178 156.952037,122.16863 L156.952037,122.16863 L156.952037,60.2778965 C156.952037,58.7830752 156.596779,57.3388376 155.945877,56.0484398 Z M31.8550999,56.2964853 C31.2810345,57.5227473 30.9695276,58.8781448 30.9695276,60.2778965 L30.9695276,60.2778965 L30.9695276,122.16863 C30.9695276,125.524178 32.7596913,128.624832 35.6656814,130.302607 L35.6656814,130.302607 L89.2646285,161.247973 C90.4658988,161.941527 91.7824005,162.348381 93.1188655,162.468536 L93.3564507,91.3471454 Z M98.6569362,21.198553 C95.7509461,19.5207788 92.1706186,19.5207788 89.2646285,21.198553 L89.2646285,21.198553 L35.6656814,52.1439195 C34.4357603,52.8540147 33.4057162,53.8189894 32.6266734,54.9502936 L94.1304507,90.0031454 L155.135317,54.7256839 C154.435413,53.7705 153.551733,52.9431729 152.516971,52.3003317 L152.255883,52.1439195 Z" id="形状结合" fill="#FFFFFF" fill-rule="nonzero"></path>
                <path d="M62.9263137,109.685711 L126.072348,73.2285961 L188.355737,109.357902 L130.71795,142.635094 C127.589764,144.441153 123.737616,144.449387 120.601739,142.656716 L62.9263137,109.685711 L62.9263137,109.685711 Z" id="路径-6" fill="#FFFFFF" opacity="0.0425920759" transform="translate(125.641025, 109.390202) rotate(-60.000000) translate(-125.641025, -109.390202) "></path>
                <path d="M35.6407565,88.9041127 L93.636303,55.1669546 L93.636303,55.1669546 L93.79779,127.692936 L31.1515195,163.264441 L31.1447148,96.7219064 C31.1443855,93.5012929 32.8569055,90.5235339 35.6407565,88.9041127 Z" id="路径-3" fill="#FFFFFF" opacity="0.0343377976" transform="translate(62.470986, 109.215698) rotate(-60.000000) translate(-62.470986, -109.215698) "></path>
                <path d="M119.849286,33.4290707 L62.5755406,0.182591365 L62.5755406,0.182591365 L63.0349471,72.0224785 C63.0358118,72.1576906 63.1083184,72.2823021 63.2254421,72.3498676 L123.403298,107.064821 C124.02133,107.421346 124.811365,107.209354 125.167891,106.591322 C125.282623,106.392434 125.342277,106.166562 125.34071,105.936959 L124.905349,42.1413285 C124.88082,38.5470414 122.957876,35.2335567 119.849286,33.4290707 Z" id="路径-8" fill="#FFFFFF" opacity="0.100000001" transform="translate(93.965818, 54.186964) rotate(-60.000000) translate(-93.965818, -54.186964) "></path>
            </g>
        </g>
    </g>
</svg>