<?xml version="1.0" encoding="UTF-8"?>
<svg width="240px" height="480px" viewBox="0 0 240 480" version="1.1" xmlns="http://www.w3.org/2000/svg" xmlns:xlink="http://www.w3.org/1999/xlink">
    <title>com.bbk.calendar_b_s5_1x2_sc</title>
    <g id="com.bbk.calendar" stroke="none" stroke-width="1" fill="none" fill-rule="evenodd">
        <g id="编组-12备份" transform="translate(64.607143, 161.035714)">
            <g id="编组-7" transform="translate(20.625000, 0.000000)"></g>
            <polygon id="矩形" fill="#F84459" points="18.3928571 136.964286 92.3928571 136.964286 92.3928571 153.964286 18.3928571 153.964286"></polygon>
        </g>
    </g>
</svg>