<?xml version="1.0" encoding="UTF-8"?>
<svg width="240px" height="240px" viewBox="0 0 240 240" version="1.1" xmlns="http://www.w3.org/2000/svg" xmlns:xlink="http://www.w3.org/1999/xlink">
    <title>com.vivo.vivoconsole_b_s6_1x1_1_sc</title>
    <defs>
        <polygon id="path-1" points="0 0 59.0909091 34.0909091 59.0909091 102.272727 -1.65362673e-12 68.1818182"></polygon>
    </defs>
    <g id="com.vivo.vivoconsole" stroke="none" stroke-width="1" fill="none" fill-rule="evenodd">
        <g id="编组-4" opacity="0.8" transform="translate(60.909091, 85.909091)">
            <mask id="mask-2" fill="white">
                <use xlink:href="#path-1"></use>
            </mask>
            <g id="路径-7"></g>
            <path d="M59.0909091,-21.4965054 L107.272727,6.30069736 L107.272727,61.8811208 L59.0909091,89.6783236 L10.9090909,61.8811208 L10.9090909,6.30069736 L59.0909091,-21.4965054 Z M58.5551948,-2.33766234 L26.9480519,15.8852986 L26.9480519,52.2965196 L59.0909091,70.7867181 L90.1623377,52.2965196 L90.1623377,15.8852986 L58.5551948,-2.33766234 Z" id="形状结合" fill-opacity="0.7" fill="#00B1F1" fill-rule="nonzero" mask="url(#mask-2)"></path>
            <polygon id="路径" fill-opacity="0.8" fill="#0075CF" fill-rule="nonzero" mask="url(#mask-2)" points="26.9480519 15.8852986 26.9480519 52.2965196 59.0909091 70.7867181 90.1623377 52.2965196 90.1623377 15.8852986 58.5551948 -2.33766234"></polygon>
        </g>
        <path d="M151.818182,138.339166 L151.818,102.023972 L168.181,92.7799718 L168.181818,147.790212 L120,175.587415 L120,156.695809 L151.818182,138.339166 Z" id="形状结合" fill="#46BFEB" fill-rule="nonzero" opacity="0.100000001"></path>
        <path d="M151.818,102.078386 L151.818182,138.339166 L120,156.695809 L120,120.133619 L151.818,102.078386 Z" id="形状结合" fill="#00B3F4" fill-rule="nonzero" opacity="0.100000001"></path>
    </g>
</svg>