<?xml version="1.0" encoding="UTF-8"?>
<svg width="240px" height="240px" viewBox="0 0 240 240" version="1.1" xmlns="http://www.w3.org/2000/svg" xmlns:xlink="http://www.w3.org/1999/xlink">
    <title>com.android.filemanager_b_s6_1x1_2_sc</title>
    <g id="com.android.filemanager" stroke="none" stroke-width="1" fill="none" fill-rule="evenodd">
        <path d="M174,47 C177.313708,47 180,49.6862915 180,53 L180.000845,60.0548785 C179.691877,60.0186363 179.377527,60 179.058824,60 L179.058824,60 L60,59.999 L60,53 C60,49.6862915 62.6862915,47 66,47 L174,47 Z" id="形状结合备份" fill="#FFFFFF" opacity="0.8"></path>
        <path d="M66.9993342,79.999 L113.015376,80 L113.290425,80.0037362 C114.745025,80.0432895 116.131203,80.3956281 117.37771,81.0006457 L67.0000142,81 L66.9993342,79.999 Z M166.999638,38 C170.313347,38 172.999638,40.6862915 172.999638,44 L172.999916,47.2376278 C172.377829,47.0824024 171.726918,47 171.05676,47 L171.05676,47 L67.9333725,47 C67.6171415,47 67.3051959,47.0183483 66.9985424,47.0540382 L67.0000142,44 C67.0000142,40.6862915 69.6863057,38 73.0000142,38 L166.999638,38 Z" id="形状结合备份" fill="#FFFFFF" opacity="0.449999988"></path>
        <path d="M179,60 C183.418278,60 187,63.581722 187,68 L187,110.491 L133.144176,110.491071 C128.891416,110.491071 125.220289,107.545522 124.280968,103.422292 L124.224742,103.157525 L123.615808,100.066901 C122.710365,95.4713591 118.74196,92.1330303 114.084675,92.0038822 L113.80443,92 L53,92 L53,68 C53,63.581722 56.581722,60 61,60 L179,60 Z M79.7731966,73.8133333 C78.8810754,73.8133333 78.8810754,73.8133333 78.2604693,74.1963636 C77.6398633,74.5793939 77.6398633,74.5793939 77.3295603,75.2339394 C77.0192572,75.8884848 77.0192572,75.8884848 77.0192572,76.7030303 C77.0192572,77.5466667 77.0192572,77.5466667 77.3392572,78.2109091 C77.6592572,78.8751515 77.6592572,78.8751515 78.2992572,79.2581818 C78.9392572,79.6412121 78.9392572,79.6412121 79.8507724,79.6412121 C80.8398633,79.6412121 80.8398633,79.6412121 81.4798633,79.2339394 C82.0487522,78.8719192 82.0487522,78.8719192 82.3494779,78.0731762 L82.4204693,77.8666667 L81.0725906,77.8666667 C80.936833,78.1575758 80.936833,78.1575758 80.6313784,78.3127273 C80.3259239,78.4678788 80.3259239,78.4678788 79.8507724,78.4678788 C79.4338027,78.4678788 79.4338027,78.4678788 79.1234996,78.3030303 C78.8131966,78.1381818 78.8131966,78.1381818 78.6483481,77.8569697 C78.5164693,77.632 78.5164693,77.632 78.4962996,77.376 L78.4931966,77.2460606 L82.4883481,77.2460606 L82.4883481,76.6448485 C82.4883481,75.8593939 82.4883481,75.8593939 82.1925906,75.2145455 C81.896833,74.569697 81.896833,74.569697 81.2859239,74.1915152 C80.6750148,73.8133333 80.6750148,73.8133333 79.7731966,73.8133333 Z M70.7844383,71.990303 L65.3056504,71.990303 L65.3056504,79.4763636 L66.7892868,79.4763636 L66.7892868,76.5381818 L70.3383777,76.5381818 L70.3383777,75.2290909 L66.7892868,75.2290909 L66.7892868,73.3090909 L70.7844383,73.3090909 L70.7844383,71.990303 Z M73.3539897,74.0363636 L71.8994442,74.0363636 L71.8994442,79.4763636 L73.3539897,79.4763636 L73.3539897,74.0363636 Z M76.0108896,71.990303 L74.5563441,71.990303 L74.5563441,79.4763636 L76.0108896,79.4763636 L76.0108896,71.990303 Z M87.2759412,76.0909091 L84.8516988,76.0909091 L84.8516988,78.5151515 L87.2759412,78.5151515 L87.2759412,76.0909091 Z M79.7731966,74.9866667 C80.1804693,74.9866667 80.1804693,74.9866667 80.4665299,75.1660606 C80.7525906,75.3454545 80.7525906,75.3454545 80.8883481,75.6121212 C81.0241057,75.8787879 81.0241057,75.8787879 81.0241057,76.150303 L78.4931966,76.150303 C78.4931966,75.8787879 78.4931966,75.8787879 78.6338027,75.6121212 C78.7744087,75.3454545 78.7744087,75.3454545 79.0604693,75.1660606 C79.3465299,74.9866667 79.3465299,74.9866667 79.7731966,74.9866667 Z M72.626717,71.8642424 C72.2679291,71.8642424 72.2679291,71.8642424 72.0448988,72.0775758 C71.8218685,72.2909091 71.8218685,72.2909091 71.8218685,72.649697 C71.8218685,72.9793939 71.8218685,72.9793939 72.0497473,73.2072727 C72.2776261,73.4351515 72.2776261,73.4351515 72.626717,73.4351515 C72.9564139,73.4351515 72.9564139,73.4351515 73.1891412,73.2072727 C73.4218685,72.9793939 73.4218685,72.9793939 73.4218685,72.649697 C73.4218685,72.3006061 73.4218685,72.3006061 73.1939897,72.0824242 C72.9661109,71.8642424 72.9661109,71.8642424 72.626717,71.8642424 Z" id="形状结合" fill="#FFFFFF"></path>
    </g>
</svg>