<?xml version="1.0" encoding="UTF-8"?>
<svg width="240px" height="240px" viewBox="0 0 240 240" version="1.1" xmlns="http://www.w3.org/2000/svg" xmlns:xlink="http://www.w3.org/1999/xlink">
    <title>com.vivo.weather.sun_b_s5_1x1_sc</title>
    <g id="com.vivo.weather.sun" stroke="none" stroke-width="1" fill="none" fill-rule="evenodd" opacity="0.949999988">
        <g id="编组-38" transform="translate(136.753788, 72.909000)" fill="#7CB9A4">
            <path d="M14.6787118,0 C28.2111363,0 39.1812118,10.9703818 39.1812118,24.5025 C39.1812118,29.0304658 37.9530243,33.2715562 35.8116135,36.9108071 C31.0522852,34.3086191 25.5965406,32.8306721 19.7970118,32.8306721 C19.3403038,32.8306721 18.8857277,32.8398375 18.434995,32.8591666 C15.4367348,21.6378793 8.85893867,11.8792198 1.77635684e-14,4.88178296 C4.09000952,1.81643185 9.17222894,0 14.6787118,0 Z" id="形状结合"></path>
        </g>
    </g>
</svg>