<?xml version="1.0" encoding="UTF-8"?>
<svg width="240px" height="480px" viewBox="0 0 240 480" version="1.1" xmlns="http://www.w3.org/2000/svg" xmlns:xlink="http://www.w3.org/1999/xlink">
    <title>com.vivo.weather.haze_b_s5_1x2_bg</title>
    <defs>
        <path d="M61.5332448,-2.48601674e-15 L376.466755,2.48601674e-15 C397.863205,-1.44444732e-15 405.622075,2.22781467 413.444297,6.41118489 C421.266519,10.5945551 427.405445,16.7334809 431.588815,24.5557031 C435.772185,32.3779253 438,40.136795 438,61.5332448 L438,136.466755 C438,157.863205 435.772185,165.622075 431.588815,173.444297 C427.405445,181.266519 421.266519,187.405445 413.444297,191.588815 C405.622075,195.772185 397.863205,198 376.466755,198 L61.5332448,198 C40.136795,198 32.3779253,195.772185 24.5557031,191.588815 C16.7334809,187.405445 10.5945551,181.266519 6.41118489,173.444297 C2.22781467,165.622075 9.62964878e-16,157.863205 -1.65734449e-15,136.466755 L1.65734449e-15,61.5332448 C-9.62964878e-16,40.136795 2.22781467,32.3779253 6.41118489,24.5557031 C10.5945551,16.7334809 16.7334809,10.5945551 24.5557031,6.41118489 C32.3779253,2.22781467 40.136795,1.44444732e-15 61.5332448,-2.48601674e-15 Z" id="path-1"></path>
    </defs>
    <g id="com.vivo.weather.haze" stroke="none" stroke-width="1" fill="none" fill-rule="evenodd">
        <g id="编组-7备份-24" transform="translate(120.000000, 240.000000) rotate(-270.000000) translate(-120.000000, -240.000000) translate(-99.000000, 141.000000)">
            <mask id="mask-2" fill="white">
                <use xlink:href="#path-1"></use>
            </mask>
            <use id="mask" fill="#59ADF5" xlink:href="#path-1"></use>
        </g>
    </g>
</svg>