<?xml version="1.0" encoding="UTF-8"?>
<svg width="480px" height="240px" viewBox="0 0 480 240" version="1.1" xmlns="http://www.w3.org/2000/svg" xmlns:xlink="http://www.w3.org/1999/xlink">
    <title>com.vivo.weather.thunder_b_s5_2x1_sc</title>
    <g id="com.vivo.weather.thunder" stroke="none" stroke-width="1" fill="none" fill-rule="evenodd">
        <g id="编组" transform="translate(213.390927, 179.326923)" fill="#FFFFFF">
            <rect id="矩形备份-28" opacity="0.5" transform="translate(47.344785, 9.321007) rotate(-345.000000) translate(-47.344785, -9.321007) " x="44.4890155" y="0.436391537" width="5.71153846" height="17.7692308" rx="2.85576923"></rect>
            <rect id="矩形备份-24" opacity="0.78" transform="translate(25.767862, 11.772972) rotate(-345.000000) translate(-25.767862, -11.772972) " x="22.9120924" y="0.349895558" width="5.71153846" height="22.8461538" rx="2.85576923"></rect>
            <rect id="矩形" opacity="0.68" transform="translate(4.400967, 6.869041) rotate(-345.000000) translate(-4.400967, -6.869041) " x="1.5451975" y="0.522887517" width="5.71153846" height="12.6923077" rx="2.85576923"></rect>
        </g>
    </g>
</svg>