<?xml version="1.0" encoding="UTF-8"?>
<svg width="240px" height="240px" viewBox="0 0 240 240" version="1.1" xmlns="http://www.w3.org/2000/svg" xmlns:xlink="http://www.w3.org/1999/xlink">
    <title>com.android.BBKClock_clock_dial_center_1x1_0_sc</title>
    <g id="com.android.BBKClock_clock_dial_center" stroke="none" stroke-width="1" fill="none" fill-rule="evenodd">
        <rect id="矩形" fill="#EE3A57" transform="translate(120.000000, 44.000000) rotate(-360.000000) translate(-120.000000, -44.000000) " x="116" y="35" width="8" height="18" rx="2.35714286"></rect>
    </g>
</svg>