<?xml version="1.0" encoding="UTF-8"?>
<svg width="240px" height="480px" viewBox="0 0 240 480" version="1.1" xmlns="http://www.w3.org/2000/svg" xmlns:xlink="http://www.w3.org/1999/xlink">
    <title>com.android.BBKClock_clock_dial_1x2_0_bg</title>
    <g id="com.android.BBKClock_clock_dial" stroke="none" stroke-width="1" fill="none" fill-rule="evenodd">
        <g id="闹钟时钟备份-9" transform="translate(21.000000, 21.000000)" fill="#FFFFFF">
            <path d="M-58.4667552,120 L256.466755,120 C277.863205,120 285.622075,122.227815 293.444297,126.411185 C301.266519,130.594555 307.405445,136.733481 311.588815,144.555703 C315.772185,152.377925 318,160.136795 318,181.533245 L318,256.466755 C318,277.863205 315.772185,285.622075 311.588815,293.444297 C307.405445,301.266519 301.266519,307.405445 293.444297,311.588815 C285.622075,315.772185 277.863205,318 256.466755,318 L-58.4667552,318 C-79.863205,318 -87.6220747,315.772185 -95.4442969,311.588815 C-103.266519,307.405445 -109.405445,301.266519 -113.588815,293.444297 C-117.772185,285.622075 -120,277.863205 -120,256.466755 L-120,181.533245 C-120,160.136795 -117.772185,152.377925 -113.588815,144.555703 C-109.405445,136.733481 -103.266519,130.594555 -95.4442969,126.411185 C-87.6220747,122.227815 -79.863205,120 -58.4667552,120 Z" id="矩形" transform="translate(99.000000, 219.000000) rotate(-270.000000) translate(-99.000000, -219.000000) "></path>
        </g>
    </g>
</svg>